-0.5,-1.026017418,-1.01E-08,-1.02601491,-2.03E-08,-1.026016814,-3.04E-08,-1.026018657,-1.01E-07,-1.026018985,-1.01E-06,-1.026090772,-1.01E-09
-0.5,-1.026017418,-1.01E-08,-1.02601491,-2.03E-08,-1.026016814,-3.04E-08,-1.026018657,-1.01E-07,-1.026018985,-1.01E-06,-1.026090772,-1.01E-09
-0.5,-1.026017418,-1.01E-08,-1.02601491,-2.03E-08,-1.026016814,-3.04E-08,-1.026018657,-1.01E-07,-1.026018985,-1.01E-06,-1.026090772,-1.01E-09
-0.5,-1.026017418,-1.01E-08,-1.02601491,-2.03E-08,-1.026016814,-3.04E-08,-1.026018657,-1.01E-07,-1.026018985,-1.01E-06,-1.026090772,-1.01E-09
-0.5,-1.026017418,-1.01E-08,-1.02601491,-2.03E-08,-1.026016814,-3.04E-08,-1.026018657,-1.01E-07,-1.026018985,-1.01E-06,-1.026090772,-1.01E-09
-0.5,-1.026017418,-1.01E-08,-1.02601491,-2.03E-08,-1.026016814,-3.04E-08,-1.026018657,-1.01E-07,-1.026018985,-1.01E-06,-1.026090772,-1.01E-09
-0.5,-1.026017418,-1.01E-08,-1.02601491,-2.03E-08,-1.026016814,-3.04E-08,-1.026018657,-1.01E-07,-1.026018985,-1.01E-06,-1.026090772,-1.01E-09
-0.5,-1.026017418,-1.01E-08,-1.02601491,-2.03E-08,-1.026016814,-3.04E-08,-1.026018657,-1.01E-07,-1.026018985,-1.01E-06,-1.026090772,-1.01E-09
-0.5,-1.026017418,-1.01E-08,-1.02601491,-2.03E-08,-1.026016814,-3.04E-08,-1.026018657,-1.01E-07,-1.026018985,-1.01E-06,-1.026090772,-1.01E-09
-0.49936,-1.02537742,-1.01E-08,-1.025374911,-2.03E-08,-1.025376815,-3.04E-08,-1.025378657,-1.01E-07,-1.025378985,-1.01E-06,-1.025450785,-1.01E-09
-0.498079922,-1.024097344,-1.01E-08,-1.024094834,-2.03E-08,-1.024096737,-3.04E-08,-1.024098579,-1.01E-07,-1.024098907,-1.01E-06,-1.024170733,-1.01E-09
-0.495519766,-1.021537193,-1.01E-08,-1.02153468,-2.03E-08,-1.021536583,-3.04E-08,-1.021538423,-1.01E-07,-1.021538751,-1.01E-06,-1.021610629,-1.01E-09
-0.490399453,-1.016416891,-1.01E-08,-1.016414373,-2.03E-08,-1.016416274,-3.04E-08,-1.016418112,-1.01E-07,-1.016418438,-1.01E-06,-1.016490421,-1.01E-09
-0.49,-1.016017439,-1.01E-08,-1.016014921,-2.03E-08,-1.016016821,-3.04E-08,-1.016018659,-1.01E-07,-1.016018985,-1.01E-06,-1.016090976,-1.01E-09
-0.489201074,-1.015218515,-1.01E-08,-1.015215996,-2.03E-08,-1.015217896,-3.04E-08,-1.015219733,-1.01E-07,-1.015220059,-1.01E-06,-1.015292066,-1.01E-09
-0.487603223,-1.013620667,-1.01E-08,-1.013618146,-2.03E-08,-1.013620045,-3.04E-08,-1.013621882,-1.01E-07,-1.013622208,-1.01E-06,-1.013694247,-1.01E-09
-0.48440752,-1.01042497,-1.01E-08,-1.010422446,-2.03E-08,-1.010424345,-3.04E-08,-1.01042618,-1.01E-07,-1.010426505,-1.01E-06,-1.01049861,-1.01E-09
-0.48,-1.00601746,-1.01E-08,-1.006014931,-2.03E-08,-1.006016828,-3.04E-08,-1.006018661,-1.01E-07,-1.006018985,-1.01E-06,-1.00609118,-1.01E-09
-0.479360859,-1.00537832,-1.01E-08,-1.005375791,-2.03E-08,-1.005377688,-3.04E-08,-1.00537952,-1.01E-07,-1.005379845,-1.01E-06,-1.005452052,-1.01E-09
-0.478082539,-1.004100003,-1.01E-08,-1.004097472,-2.03E-08,-1.004099368,-3.04E-08,-1.0041012,-1.01E-07,-1.004101524,-1.01E-06,-1.004173758,-1.01E-09
-0.475525898,-1.001543367,-1.01E-08,-1.001540834,-2.03E-08,-1.00154273,-3.04E-08,-1.00154456,-1.01E-07,-1.001544884,-1.01E-06,-1.00161717,-1.01E-09
-0.470412617,-0.996473721,-1.01E-08,-0.996478437,-2.02E-08,-0.996477899,-3.03E-08,-0.996479212,-1.01E-07,-0.996479384,-1.01E-06,-0.996503993,-1.01E-09
-0.47,-0.996066146,-1.01E-08,-0.996071697,-2.02E-08,-0.996070881,-3.03E-08,-0.996072136,-1.01E-07,-0.996072292,-1.01E-06,-0.996091384,-1.01E-09
-0.469174805,-0.995251037,-1.01E-08,-0.995258255,-2.02E-08,-0.995256882,-3.03E-08,-0.995258024,-1.01E-07,-0.995258146,-1.01E-06,-0.995266206,-1.01E-09
-0.467524414,-0.993620817,-1.01E-08,-0.993631371,-2.02E-08,-0.993628886,-3.03E-08,-0.9936298,-1.01E-07,-0.993629854,-1.01E-06,-0.993615849,-1.01E-09
-0.464223633,-0.990360378,-1.01E-08,-0.990377603,-2.01E-08,-0.990372894,-3.02E-08,-0.990373353,-1.01E-07,-0.99037327,-1.01E-06,-0.990315135,-1.01E-09
-0.46,-0.986196113,-1.00E-08,-0.986210272,-2.01E-08,-0.986206572,-3.01E-08,-0.986207992,-1.00E-07,-0.986207581,-1.00E-06,-0.986169753,-1.01E-09
-0.459339844,-0.985545351,-1.00E-08,-0.985558856,-2.01E-08,-0.985555374,-3.01E-08,-0.985556967,-1.00E-07,-0.985556503,-1.00E-06,-0.985522813,-1.01E-09
-0.458019531,-0.984243826,-1.00E-08,-0.984256024,-2.01E-08,-0.984252977,-3.01E-08,-0.984254918,-1.00E-07,-0.984254347,-1.00E-06,-0.984228932,-1.00E-09
-0.455378906,-0.981640776,-1.00E-08,-0.981650359,-2.00E-08,-0.981648183,-3.00E-08,-0.98165082,-1.00E-07,-0.981650034,-1.00E-06,-0.98164117,-1.00E-09
-0.450097656,-0.976434676,-9.98E-09,-0.976442651,-2.00E-08,-0.97644101,-2.99E-08,-0.976443346,-9.97E-08,-0.97644271,-9.97E-07,-0.976465646,-9.96E-10
-0.45,-0.976338409,-9.98E-09,-0.976346386,-1.99E-08,-0.976344744,-2.99E-08,-0.976347061,-9.97E-08,-0.976346432,-9.97E-07,-0.976369945,-9.96E-10
-0.449804687,-0.976145876,-9.97E-09,-0.976153855,-1.99E-08,-0.976152212,-2.99E-08,-0.976154489,-9.97E-08,-0.976153876,-9.97E-07,-0.976178543,-9.96E-10
-0.449414062,-0.975760809,-9.97E-09,-0.975768794,-1.99E-08,-0.975767149,-2.99E-08,-0.975769346,-9.97E-08,-0.975768764,-9.97E-07,-0.975795738,-9.96E-10
-0.448632812,-0.974990676,-9.97E-09,-0.974998671,-1.99E-08,-0.974997022,-2.99E-08,-0.974999059,-9.96E-08,-0.974998539,-9.96E-07,-0.975030128,-9.95E-10
-0.447070312,-0.97345041,-9.96E-09,-0.973458426,-1.99E-08,-0.973456769,-2.99E-08,-0.973458486,-9.95E-08,-0.973458089,-9.95E-07,-0.973498908,-9.93E-10
-0.443945312,-0.970369878,-9.93E-09,-0.970377936,-1.99E-08,-0.970376263,-2.98E-08,-0.970377339,-9.93E-08,-0.97037719,-9.93E-07,-0.970436468,-9.90E-10
-0.44,-0.966480705,-9.91E-09,-0.966488817,-1.98E-08,-0.966487123,-2.97E-08,-0.966489534,-9.90E-08,-0.966489126,-9.90E-07,-0.966500143,-9.90E-10
-0.439375,-0.965864599,-9.90E-09,-0.965872719,-1.98E-08,-0.965871022,-2.97E-08,-0.96587368,-9.90E-08,-0.965873222,-9.90E-07,-0.965875156,-9.90E-10
-0.438125,-0.964632386,-9.89E-09,-0.964640523,-1.98E-08,-0.96463882,-2.97E-08,-0.964641973,-9.89E-08,-0.964641413,-9.89E-07,-0.964625181,-9.90E-10
-0.435625,-0.96216796,-9.88E-09,-0.96217613,-1.98E-08,-0.962174414,-2.96E-08,-0.962178559,-9.87E-08,-0.962177796,-9.87E-07,-0.962125232,-9.90E-10
-0.430625,-0.957244708,-9.84E-09,-0.957250143,-1.97E-08,-0.957249334,-2.95E-08,-0.957252289,-9.84E-08,-0.957251735,-9.84E-07,-0.957182825,-9.87E-10
-0.43,-0.956629851,-9.83E-09,-0.956634671,-1.97E-08,-0.956634067,-2.95E-08,-0.956636561,-9.83E-08,-0.956636093,-9.83E-07,-0.956570337,-9.87E-10
-0.429,-0.955646081,-9.83E-09,-0.955649916,-1.97E-08,-0.95564964,-2.95E-08,-0.955651396,-9.83E-08,-0.955651067,-9.83E-07,-0.955590356,-9.86E-10
-0.427,-0.953678539,-9.81E-09,-0.953680406,-1.96E-08,-0.953680785,-2.94E-08,-0.953681065,-9.81E-08,-0.953681014,-9.81E-07,-0.953630395,-9.84E-10
-0.423,-0.949742934,-9.78E-09,-0.949741386,-1.96E-08,-0.949742902,-2.93E-08,-0.949740561,-9.78E-08,-0.94974104,-9.78E-07,-0.949710472,-9.80E-10
-0.42,-0.946785623,-9.76E-09,-0.94678712,-1.95E-08,-0.94678762,-2.93E-08,-0.946786866,-9.76E-08,-0.946787461,-9.76E-07,-0.946770529,-9.77E-10
-0.4192,-0.945997007,-9.75E-09,-0.945999316,-1.95E-08,-0.945999544,-2.93E-08,-0.945999213,-9.75E-08,-0.94599984,-9.75E-07,-0.945986545,-9.76E-10
-0.4176,-0.944419774,-9.74E-09,-0.944423708,-1.95E-08,-0.944423393,-2.92E-08,-0.944423909,-9.74E-08,-0.944424598,-9.74E-07,-0.944418575,-9.74E-10
-0.4144,-0.941265309,-9.72E-09,-0.941272492,-1.94E-08,-0.941271092,-2.92E-08,-0.941273301,-9.72E-08,-0.941274114,-9.72E-07,-0.941282637,-9.71E-10
-0.41,-0.93693415,-9.69E-09,-0.936942676,-1.94E-08,-0.936940823,-2.91E-08,-0.936943076,-9.68E-08,-0.936943749,-9.68E-07,-0.936970721,-9.67E-10
-0.40936,-0.936304537,-9.68E-09,-0.936313073,-1.94E-08,-0.936311216,-2.90E-08,-0.936313338,-9.68E-08,-0.936313972,-9.68E-07,-0.936343533,-9.66E-10
-0.408079922,-0.935045233,-9.67E-09,-0.935053789,-1.93E-08,-0.935051924,-2.90E-08,-0.935053785,-9.67E-08,-0.935054341,-9.67E-07,-0.935089081,-9.65E-10
-0.405519766,-0.932526626,-9.65E-09,-0.932535222,-1.93E-08,-0.932533342,-2.90E-08,-0.932534679,-9.65E-08,-0.932535079,-9.65E-07,-0.932580177,-9.63E-10
-0.400399453,-0.927489412,-9.61E-09,-0.927498087,-1.92E-08,-0.927496177,-2.88E-08,-0.927497991,-9.61E-08,-0.927497925,-9.61E-07,-0.92756237,-9.58E-10
-0.4,-0.927096442,-9.61E-09,-0.927105123,-1.92E-08,-0.927103211,-2.88E-08,-0.927105182,-9.61E-08,-0.927105068,-9.61E-07,-0.927170913,-9.57E-10
-0.399201074,-0.926310482,-9.60E-09,-0.926319175,-1.92E-08,-0.926317259,-2.88E-08,-0.926319544,-9.60E-08,-0.926319334,-9.60E-07,-0.926387981,-9.56E-10
-0.397603223,-0.924738562,-9.59E-09,-0.92474728,-1.92E-08,-0.924745354,-2.88E-08,-0.92474827,-9.59E-08,-0.924747867,-9.59E-07,-0.924822117,-9.55E-10
-0.39440752,-0.921594722,-9.56E-09,-0.92160349,-1.91E-08,-0.921601546,-2.87E-08,-0.921605721,-9.56E-08,-0.921604932,-9.56E-07,-0.92169039,-9.52E-10
-0.39,-0.917264282,-9.53E-09,-0.91727034,-1.91E-08,-0.917269294,-2.86E-08,-0.917272619,-9.53E-08,-0.91727185,-9.53E-07,-0.917317456,-9.50E-10
-0.389360859,-0.916636787,-9.52E-09,-0.91664222,-1.90E-08,-0.916641382,-2.86E-08,-0.916644364,-9.52E-08,-0.916643645,-9.52E-07,-0.916678329,-9.50E-10
-0.388082539,-0.915381759,-9.51E-09,-0.915385941,-1.90E-08,-0.91538552,-2.85E-08,-0.915387816,-9.51E-08,-0.915387198,-9.51E-07,-0.915400035,-9.50E-10
-0.385525898,-0.912871701,-9.49E-09,-0.912873383,-1.90E-08,-0.912873795,-2.85E-08,-0.912874719,-9.49E-08,-0.912874302,-9.49E-07,-0.912843446,-9.50E-10
-0.380412617,-0.907847229,-9.44E-09,-0.907850447,-1.89E-08,-0.907850345,-2.83E-08,-0.90785027,-9.45E-08,-0.907849862,-9.45E-07,-0.907775662,-9.48E-10
-0.38,-0.907441309,-9.44E-09,-0.907445355,-1.89E-08,-0.907444976,-2.83E-08,-0.907445009,-9.44E-08,-0.907444559,-9.44E-07,-0.907371305,-9.47E-10
-0.379174805,-0.906629505,-9.43E-09,-0.906635209,-1.89E-08,-0.906634278,-2.83E-08,-0.906634526,-9.43E-08,-0.906633993,-9.43E-07,-0.90656263,-9.47E-10
-0.377524414,-0.905005899,-9.42E-09,-0.905014919,-1.88E-08,-0.905012882,-2.83E-08,-0.905013559,-9.42E-08,-0.90501286,-9.42E-07,-0.904945278,-9.45E-10
-0.374223633,-0.901758687,-9.39E-09,-0.901774337,-1.88E-08,-0.90177009,-2.82E-08,-0.901771625,-9.39E-08,-0.901770594,-9.39E-07,-0.901710576,-9.42E-10
-0.37,-0.897608451,-9.36E-09,-0.897627735,-1.87E-08,-0.897622265,-2.81E-08,-0.897624737,-9.35E-08,-0.897623521,-9.35E-07,-0.897571497,-9.38E-10
-0.369339844,-0.896960323,-9.35E-09,-0.896979619,-1.87E-08,-0.896974145,-2.80E-08,-0.896976744,-9.35E-08,-0.896975527,-9.35E-07,-0.896924557,-9.37E-10
-0.368019531,-0.895664068,-9.34E-09,-0.895683386,-1.87E-08,-0.895677904,-2.80E-08,-0.895680758,-9.34E-08,-0.89567954,-9.34E-07,-0.895630676,-9.36E-10
-0.365378906,-0.893071556,-9.32E-09,-0.893090921,-1.86E-08,-0.893085421,-2.79E-08,-0.893088787,-9.31E-08,-0.893087565,-9.31E-07,-0.893042914,-9.33E-10
-0.360097656,-0.887890803,-9.27E-09,-0.887908111,-1.85E-08,-0.887903288,-2.78E-08,-0.887906115,-9.27E-08,-0.887905184,-9.27E-07,-0.88786739,-9.28E-10
-0.36,-0.88779512,-9.27E-09,-0.887812332,-1.85E-08,-0.887807542,-2.78E-08,-0.887810317,-9.26E-08,-0.887809399,-9.26E-07,-0.887771689,-9.28E-10
-0.359804687,-0.887603754,-9.27E-09,-0.887620776,-1.85E-08,-0.887616049,-2.78E-08,-0.887618719,-9.26E-08,-0.887617828,-9.26E-07,-0.887580287,-9.28E-10
-0.359414062,-0.887221021,-9.26E-09,-0.887237663,-1.85E-08,-0.887233063,-2.78E-08,-0.887235524,-9.26E-08,-0.887234687,-9.26E-07,-0.887197482,-9.27E-10
-0.358632812,-0.886455555,-9.26E-09,-0.886471438,-1.85E-08,-0.88646709,-2.78E-08,-0.886469134,-9.25E-08,-0.886468404,-9.25E-07,-0.886431872,-9.26E-10
-0.357070312,-0.884924624,-9.24E-09,-0.884938988,-1.85E-08,-0.884935146,-2.77E-08,-0.884936354,-9.24E-08,-0.88493584,-9.24E-07,-0.884900652,-9.25E-10
-0.353945312,-0.881862761,-9.21E-09,-0.881874087,-1.84E-08,-0.881871257,-2.76E-08,-0.881870794,-9.21E-08,-0.88187071,-9.21E-07,-0.881838212,-9.22E-10
-0.35,-0.87799716,-9.17E-09,-0.878006667,-1.83E-08,-0.878003098,-2.75E-08,-0.878002546,-9.17E-08,-0.878002559,-9.17E-07,-0.877971881,-9.18E-10
-0.349375,-0.877384787,-9.16E-09,-0.877394307,-1.83E-08,-0.87739032,-2.75E-08,-0.877390053,-9.17E-08,-0.877390016,-9.17E-07,-0.877359393,-9.17E-10
-0.348125,-0.876160042,-9.15E-09,-0.876169586,-1.83E-08,-0.876164765,-2.75E-08,-0.876165069,-9.15E-08,-0.876164931,-9.15E-07,-0.876134417,-9.16E-10
-0.345625,-0.873710552,-9.13E-09,-0.873720145,-1.83E-08,-0.873713654,-2.74E-08,-0.8737151,-9.13E-08,-0.87371476,-9.13E-07,-0.873684465,-9.14E-10
-0.340625,-0.868811572,-9.08E-09,-0.868821262,-1.82E-08,-0.868813032,-2.72E-08,-0.868816119,-9.08E-08,-0.868815424,-9.08E-07,-0.868784561,-9.09E-10
-0.34,-0.868199199,-9.07E-09,-0.868208901,-1.81E-08,-0.86820108,-2.72E-08,-0.868204121,-9.07E-08,-0.868203401,-9.07E-07,-0.868172073,-9.08E-10
-0.339,-0.867219403,-9.06E-09,-0.867229125,-1.81E-08,-0.867221956,-2.72E-08,-0.867224925,-9.06E-08,-0.867224164,-9.06E-07,-0.867192092,-9.07E-10
-0.337,-0.865259811,-9.04E-09,-0.865269572,-1.81E-08,-0.865263708,-2.71E-08,-0.865266533,-9.04E-08,-0.865265691,-9.04E-07,-0.865232131,-9.05E-10
-0.333,-0.861340627,-9.00E-09,-0.861350465,-1.80E-08,-0.861347212,-2.70E-08,-0.86134975,-9.00E-08,-0.861348743,-9.00E-07,-0.861312208,-9.01E-10
-0.33,-0.858404462,-8.97E-09,-0.858414342,-1.79E-08,-0.858410911,-2.69E-08,-0.858413444,-8.97E-08,-0.858412539,-8.97E-07,-0.858372265,-8.98E-10
-0.3292,-0.857622206,-8.96E-09,-0.857632103,-1.79E-08,-0.857628139,-2.69E-08,-0.857630719,-8.96E-08,-0.857629893,-8.96E-07,-0.85758828,-8.98E-10
-0.3276,-0.856057693,-8.95E-09,-0.856067624,-1.79E-08,-0.856062595,-2.68E-08,-0.856065271,-8.95E-08,-0.856064599,-8.95E-07,-0.856020311,-8.96E-10
-0.3244,-0.852928666,-8.91E-09,-0.852938667,-1.78E-08,-0.852931506,-2.67E-08,-0.852934373,-8.91E-08,-0.852934013,-8.91E-07,-0.852884373,-8.93E-10
-0.32,-0.848626256,-8.87E-09,-0.84863635,-1.77E-08,-0.848628107,-2.66E-08,-0.848630771,-8.87E-08,-0.848630783,-8.87E-07,-0.848572457,-8.89E-10
-0.31936,-0.84800045,-8.86E-09,-0.848010558,-1.77E-08,-0.848002731,-2.66E-08,-0.848005222,-8.86E-08,-0.848005272,-8.86E-07,-0.847945269,-8.88E-10
-0.318079922,-0.846748763,-8.85E-09,-0.846758899,-1.77E-08,-0.846751903,-2.65E-08,-0.84675405,-8.85E-08,-0.846754172,-8.85E-07,-0.846690817,-8.87E-10
-0.315519766,-0.84424539,-8.82E-09,-0.84425558,-1.76E-08,-0.844250246,-2.65E-08,-0.844251704,-8.82E-08,-0.844251974,-8.82E-07,-0.844181913,-8.84E-10
-0.310399453,-0.839240174,-8.76E-09,-0.839250455,-1.75E-08,-0.839247439,-2.63E-08,-0.839247922,-8.76E-08,-0.839248395,-8.76E-07,-0.839164105,-8.79E-10
-0.31,-0.838850367,-8.76E-09,-0.838860657,-1.75E-08,-0.838857376,-2.63E-08,-0.838857961,-8.76E-08,-0.83885841,-8.76E-07,-0.838772649,-8.79E-10
-0.309201074,-0.838070733,-8.75E-09,-0.838081041,-1.75E-08,-0.83807723,-2.62E-08,-0.838078019,-8.75E-08,-0.83807842,-8.75E-07,-0.837989717,-8.78E-10
-0.307603223,-0.836511464,-8.73E-09,-0.83652181,-1.75E-08,-0.836516938,-2.62E-08,-0.836518135,-8.73E-08,-0.836518439,-8.73E-07,-0.836423853,-8.76E-10
-0.30440752,-0.833392927,-8.69E-09,-0.833403347,-1.74E-08,-0.833396354,-2.61E-08,-0.833398367,-8.69E-08,-0.833398478,-8.69E-07,-0.833292126,-8.73E-10
-0.3,-0.829091835,-8.64E-09,-0.829102358,-1.73E-08,-0.829093656,-2.59E-08,-0.82909667,-8.64E-08,-0.829096459,-8.64E-07,-0.828992981,-8.68E-10
-0.299360859,-0.828468127,-8.63E-09,-0.828478666,-1.73E-08,-0.828470377,-2.59E-08,-0.828473469,-8.63E-08,-0.828473182,-8.63E-07,-0.828378916,-8.67E-10
-0.298082539,-0.827220674,-8.62E-09,-0.827231243,-1.72E-08,-0.82722378,-2.59E-08,-0.82722703,-8.62E-08,-0.82722659,-8.62E-07,-0.827150749,-8.64E-10
-0.295525898,-0.824725768,-8.59E-09,-0.824736396,-1.72E-08,-0.824730585,-2.58E-08,-0.824734152,-8.59E-08,-0.824733407,-8.59E-07,-0.824694415,-8.59E-10
-0.290412617,-0.819736486,-8.53E-09,-0.819747213,-1.71E-08,-0.819744539,-2.56E-08,-0.819748648,-8.52E-08,-0.819747355,-8.53E-07,-0.819777382,-8.50E-10
-0.29,-0.819334641,-8.52E-09,-0.819345378,-1.70E-08,-0.8193427,-2.56E-08,-0.819346725,-8.52E-08,-0.81934548,-8.52E-07,-0.819373025,-8.49E-10
-0.289174805,-0.818530989,-8.51E-09,-0.818541747,-1.70E-08,-0.818539061,-2.55E-08,-0.818542918,-8.51E-08,-0.818541769,-8.51E-07,-0.81856435,-8.49E-10
-0.287524414,-0.816923684,-8.49E-09,-0.816934483,-1.70E-08,-0.816931783,-2.55E-08,-0.816935305,-8.49E-08,-0.816934346,-8.49E-07,-0.816946998,-8.47E-10
-0.284223633,-0.813709074,-8.45E-09,-0.813719957,-1.69E-08,-0.813717226,-2.53E-08,-0.813720078,-8.45E-08,-0.813719501,-8.45E-07,-0.813712296,-8.44E-10
-0.28,-0.809596515,-8.40E-09,-0.809607089,-1.68E-08,-0.809604455,-2.52E-08,-0.809606473,-8.39E-08,-0.809606361,-8.39E-07,-0.809573217,-8.40E-10
-0.279339844,-0.808954881,-8.39E-09,-0.808964829,-1.68E-08,-0.808962404,-2.52E-08,-0.808964331,-8.38E-08,-0.808964256,-8.38E-07,-0.808926277,-8.39E-10
-0.278019531,-0.807671614,-8.37E-09,-0.80768031,-1.67E-08,-0.807678302,-2.51E-08,-0.807680046,-8.37E-08,-0.807680046,-8.37E-07,-0.807632396,-8.38E-10
-0.275378906,-0.80510508,-8.33E-09,-0.80511127,-1.67E-08,-0.805110097,-2.50E-08,-0.805111477,-8.33E-08,-0.805111627,-8.33E-07,-0.805044634,-8.35E-10
-0.270097656,-0.799972011,-8.26E-09,-0.799973246,-1.65E-08,-0.799973722,-2.48E-08,-0.799974381,-8.26E-08,-0.799974825,-8.26E-07,-0.799871677,-8.30E-10
-0.27,-0.799877095,-8.26E-09,-0.799878427,-1.65E-08,-0.799878871,-2.48E-08,-0.799879541,-8.26E-08,-0.799879974,-8.26E-07,-0.799777852,-8.30E-10
-0.269804687,-0.799687262,-8.26E-09,-0.79968879,-1.65E-08,-0.799689169,-2.48E-08,-0.799689863,-8.26E-08,-0.799690273,-8.26E-07,-0.799590202,-8.29E-10
-0.269414062,-0.799307597,-8.25E-09,-0.799309516,-1.65E-08,-0.799309765,-2.48E-08,-0.799310506,-8.25E-08,-0.799310869,-8.25E-07,-0.799214903,-8.28E-10
-0.268632812,-0.798548268,-8.24E-09,-0.798550969,-1.65E-08,-0.798550956,-2.47E-08,-0.798551792,-8.24E-08,-0.798552063,-8.24E-07,-0.798464304,-8.27E-10
-0.267070312,-0.797029608,-8.22E-09,-0.797033874,-1.64E-08,-0.797033338,-2.47E-08,-0.797034365,-8.22E-08,-0.79703445,-8.22E-07,-0.796963107,-8.24E-10
-0.263945312,-0.793995724,-8.18E-09,-0.794003533,-1.64E-08,-0.794001882,-2.45E-08,-0.794003421,-8.18E-08,-0.794003123,-8.18E-07,-0.793962023,-8.18E-10
-0.26,-0.790169204,-8.12E-09,-0.790180987,-1.62E-08,-0.79017801,-2.44E-08,-0.790180129,-8.12E-08,-0.790179349,-8.12E-07,-0.790184673,-8.10E-10
-0.259375,-0.78956396,-8.11E-09,-0.78957589,-1.62E-08,-0.789573164,-2.43E-08,-0.789575098,-8.11E-08,-0.789574306,-8.11E-07,-0.789577287,-8.10E-10
-0.258125,-0.788354198,-8.10E-09,-0.788366084,-1.62E-08,-0.788364237,-2.43E-08,-0.788365576,-8.09E-08,-0.788364814,-8.09E-07,-0.788354487,-8.08E-10
-0.255625,-0.785934675,-8.06E-09,-0.785946472,-1.61E-08,-0.785946381,-2.42E-08,-0.785946533,-8.06E-08,-0.785945829,-8.06E-07,-0.785908887,-8.06E-10
-0.250625,-0.78109563,-7.99E-09,-0.781107249,-1.60E-08,-0.78111067,-2.40E-08,-0.781108447,-7.98E-08,-0.78110786,-7.98E-07,-0.781017687,-8.01E-10
-0.25,-0.780490749,-7.98E-09,-0.780502346,-1.60E-08,-0.780506206,-2.39E-08,-0.780503686,-7.98E-08,-0.780503114,-7.98E-07,-0.780406287,-8.00E-10
-0.249,-0.779523961,-7.96E-09,-0.779535497,-1.59E-08,-0.779539393,-2.39E-08,-0.779536864,-7.96E-08,-0.779536345,-7.96E-07,-0.779440215,-7.99E-10
-0.247,-0.777592488,-7.93E-09,-0.777603948,-1.59E-08,-0.777606489,-2.38E-08,-0.777604944,-7.93E-08,-0.777604596,-7.93E-07,-0.777525361,-7.95E-10
-0.243,-0.773729541,-7.87E-09,-0.773740851,-1.57E-08,-0.773740682,-2.36E-08,-0.773741104,-7.87E-08,-0.773741098,-7.87E-07,-0.773695651,-7.87E-10
-0.24,-0.77083233,-7.82E-09,-0.770843528,-1.56E-08,-0.770841326,-2.35E-08,-0.770843224,-7.82E-08,-0.770843475,-7.82E-07,-0.770823369,-7.82E-10
-0.2392,-0.770059741,-7.81E-09,-0.770070908,-1.56E-08,-0.770068165,-2.34E-08,-0.770070456,-7.81E-08,-0.770070775,-7.81E-07,-0.770057427,-7.80E-10
-0.2376,-0.768517736,-7.79E-09,-0.768528816,-1.56E-08,-0.76852605,-2.34E-08,-0.768528071,-7.78E-08,-0.768528243,-7.78E-07,-0.768525544,-7.77E-10
-0.2344,-0.765433982,-7.73E-09,-0.765444934,-1.55E-08,-0.765442209,-2.32E-08,-0.765443603,-7.73E-08,-0.765443454,-7.73E-07,-0.765461776,-7.71E-10
-0.23,-0.76119382,-7.66E-09,-0.761204597,-1.53E-08,-0.761201927,-2.30E-08,-0.761202458,-7.66E-08,-0.76120187,-7.66E-07,-0.761249096,-7.62E-10
-0.22936,-0.760577069,-7.65E-09,-0.760587821,-1.53E-08,-0.760585159,-2.29E-08,-0.760585565,-7.65E-08,-0.760584912,-7.65E-07,-0.760636342,-7.61E-10
-0.228079922,-0.759344892,-7.63E-09,-0.759355568,-1.53E-08,-0.759352469,-2.29E-08,-0.759352946,-7.63E-08,-0.75935225,-7.63E-07,-0.759397951,-7.59E-10
-0.225519766,-0.756882998,-7.58E-09,-0.756893568,-1.52E-08,-0.756888752,-2.28E-08,-0.756889956,-7.58E-08,-0.75688932,-7.58E-07,-0.756893504,-7.57E-10
-0.220399453,-0.751959211,-7.50E-09,-0.751969566,-1.50E-08,-0.751961319,-2.25E-08,-0.751963976,-7.50E-08,-0.751963461,-7.50E-07,-0.751884609,-7.52E-10
-0.22,-0.751575089,-7.49E-09,-0.751585428,-1.50E-08,-0.751576913,-2.25E-08,-0.751579684,-7.49E-08,-0.751579178,-7.49E-07,-0.751493848,-7.51E-10
-0.219201074,-0.750806827,-7.48E-09,-0.750817133,-1.49E-08,-0.750808082,-2.24E-08,-0.75081108,-7.48E-08,-0.750810593,-7.48E-07,-0.750712307,-7.51E-10
-0.217603223,-0.749271856,-7.45E-09,-0.749281308,-1.49E-08,-0.749272489,-2.23E-08,-0.749275417,-7.45E-08,-0.749275031,-7.45E-07,-0.749167325,-7.48E-10
-0.21440752,-0.746205347,-7.39E-09,-0.746211396,-1.48E-08,-0.746205885,-2.22E-08,-0.746207543,-7.39E-08,-0.746207493,-7.39E-07,-0.746107672,-7.42E-10
-0.21,-0.741976013,-7.31E-09,-0.741977368,-1.46E-08,-0.741976418,-2.19E-08,-0.741976325,-7.31E-08,-0.741976739,-7.31E-07,-0.741887792,-7.34E-10
-0.209360859,-0.741362711,-7.30E-09,-0.741363386,-1.46E-08,-0.741363097,-2.19E-08,-0.74136275,-7.30E-08,-0.741363232,-7.30E-07,-0.741275861,-7.33E-10
-0.208082539,-0.74013607,-7.27E-09,-0.740135384,-1.46E-08,-0.740136418,-2.18E-08,-0.740135563,-7.28E-08,-0.740136179,-7.28E-07,-0.740051962,-7.30E-10
-0.205525898,-0.737687708,-7.22E-09,-0.737686762,-1.45E-08,-0.737687975,-2.17E-08,-0.737687093,-7.23E-08,-0.737687683,-7.23E-07,-0.737604165,-7.25E-10
-0.200412617,-0.732791561,-7.13E-09,-0.73279038,-1.43E-08,-0.732791668,-2.14E-08,-0.732790845,-7.13E-08,-0.732791348,-7.13E-07,-0.73270857,-7.15E-10
-0.2,-0.732396465,-7.12E-09,-0.732395265,-1.42E-08,-0.73239656,-2.14E-08,-0.732395742,-7.12E-08,-0.732396238,-7.12E-07,-0.732313519,-7.15E-10
-0.199174805,-0.731606312,-7.10E-09,-0.731605074,-1.42E-08,-0.73160638,-2.13E-08,-0.731605572,-7.11E-08,-0.731606054,-7.11E-07,-0.731523454,-7.13E-10
-0.197524414,-0.730026005,-7.07E-09,-0.730024691,-1.42E-08,-0.730026021,-2.12E-08,-0.730025232,-7.07E-08,-0.730025686,-7.07E-07,-0.729943325,-7.10E-10
-0.194223633,-0.726872032,-7.01E-09,-0.72687387,-1.40E-08,-0.72687194,-2.10E-08,-0.726872517,-7.01E-08,-0.726872982,-7.01E-07,-0.726783067,-7.04E-10
-0.19,-0.722836323,-6.92E-09,-0.722842224,-1.38E-08,-0.722836093,-2.08E-08,-0.72283843,-6.92E-08,-0.72283891,-6.92E-07,-0.722739245,-6.95E-10
-0.189339844,-0.722205539,-6.91E-09,-0.722212076,-1.38E-08,-0.722205288,-2.07E-08,-0.7222079,-6.91E-08,-0.722208382,-6.91E-07,-0.722107193,-6.94E-10
-0.188019531,-0.720943972,-6.88E-09,-0.720951779,-1.38E-08,-0.720943678,-2.06E-08,-0.72094684,-6.88E-08,-0.720947327,-6.88E-07,-0.72084309,-6.92E-10
-0.185378906,-0.718424176,-6.83E-09,-0.718434495,-1.36E-08,-0.718426011,-2.05E-08,-0.718429042,-6.83E-08,-0.718429571,-6.83E-07,-0.718349989,-6.85E-10
-0.180097656,-0.713388576,-6.72E-09,-0.713403942,-1.34E-08,-0.713397314,-2.01E-08,-0.713398644,-6.71E-08,-0.713399299,-6.71E-07,-0.713398913,-6.70E-10
-0.18,-0.713295462,-6.71E-09,-0.713310921,-1.34E-08,-0.713304327,-2.01E-08,-0.713305627,-6.71E-08,-0.713306284,-6.71E-07,-0.713307362,-6.70E-10
-0.179804687,-0.713109234,-6.71E-09,-0.71312488,-1.34E-08,-0.713118355,-2.01E-08,-0.713119591,-6.71E-08,-0.713120253,-6.71E-07,-0.71312426,-6.69E-10
-0.179414062,-0.712736778,-6.70E-09,-0.712752798,-1.34E-08,-0.71274641,-2.01E-08,-0.71274752,-6.70E-08,-0.712748192,-6.70E-07,-0.712758056,-6.68E-10
-0.178632812,-0.711991867,-6.68E-09,-0.712008633,-1.34E-08,-0.71200252,-2.00E-08,-0.712003379,-6.68E-08,-0.712004069,-6.68E-07,-0.712025649,-6.66E-10
-0.177070312,-0.710502044,-6.65E-09,-0.710520304,-1.33E-08,-0.710514739,-1.99E-08,-0.710515095,-6.65E-08,-0.710515823,-6.65E-07,-0.710560834,-6.62E-10
-0.173945312,-0.707532831,-6.58E-09,-0.707551394,-1.32E-08,-0.707546081,-1.97E-08,-0.707546298,-6.58E-08,-0.707546634,-6.58E-07,-0.707580805,-6.55E-10
-0.17,-0.703786868,-6.49E-09,-0.703805218,-1.30E-08,-0.703799974,-1.95E-08,-0.703800245,-6.49E-08,-0.703799966,-6.49E-07,-0.703803455,-6.48E-10
-0.169375,-0.703193448,-6.48E-09,-0.703211764,-1.29E-08,-0.703206531,-1.94E-08,-0.70320681,-6.47E-08,-0.703206434,-6.47E-07,-0.703205063,-6.46E-10
-0.168125,-0.702006609,-6.45E-09,-0.702024857,-1.29E-08,-0.702019645,-1.93E-08,-0.702019942,-6.45E-08,-0.702019371,-6.45E-07,-0.702008279,-6.44E-10
-0.165625,-0.699634468,-6.39E-09,-0.699651775,-1.28E-08,-0.699646865,-1.92E-08,-0.699647244,-6.39E-08,-0.699646383,-6.39E-07,-0.699622737,-6.39E-10
-0.160625,-0.694907014,-6.27E-09,-0.694914109,-1.25E-08,-0.694912602,-1.88E-08,-0.694913716,-6.27E-08,-0.694913373,-6.27E-07,-0.694935328,-6.25E-10
-0.16,-0.694316083,-6.25E-09,-0.694321901,-1.25E-08,-0.694320819,-1.88E-08,-0.694322025,-6.25E-08,-0.694321747,-6.25E-07,-0.694349402,-6.23E-10
-0.159,-0.693370592,-6.23E-09,-0.693374368,-1.25E-08,-0.693373967,-1.87E-08,-0.693375319,-6.23E-08,-0.693375145,-6.23E-07,-0.69341192,-6.20E-10
-0.157,-0.69147961,-6.18E-09,-0.691479301,-1.24E-08,-0.691480262,-1.85E-08,-0.691481908,-6.18E-08,-0.691481941,-6.18E-07,-0.691536957,-6.15E-10
-0.153,-0.687702464,-6.08E-09,-0.687701229,-1.22E-08,-0.68770089,-1.82E-08,-0.687703278,-6.08E-08,-0.687703483,-6.08E-07,-0.687739947,-6.05E-10
-0.15,-0.684871925,-6.00E-09,-0.684873466,-1.20E-08,-0.68487023,-1.80E-08,-0.684873255,-6.00E-08,-0.684873474,-6.00E-07,-0.684867665,-6.00E-10
-0.1492,-0.684117115,-5.98E-09,-0.684119396,-1.20E-08,-0.684115387,-1.80E-08,-0.684118583,-5.98E-08,-0.684118805,-5.98E-07,-0.684101723,-5.98E-10
-0.1476,-0.682607495,-5.94E-09,-0.682611255,-1.19E-08,-0.682605702,-1.78E-08,-0.682609237,-5.94E-08,-0.682609467,-5.94E-07,-0.68256984,-5.95E-10
-0.1444,-0.679589969,-5.86E-09,-0.679595818,-1.17E-08,-0.679588054,-1.76E-08,-0.679592082,-5.86E-08,-0.679592309,-5.86E-07,-0.679516362,-5.89E-10
-0.14,-0.675455811,-5.74E-09,-0.675457072,-1.15E-08,-0.675453705,-1.72E-08,-0.675456944,-5.74E-08,-0.67545702,-5.74E-07,-0.675391442,-5.76E-10
-0.13936,-0.674854478,-5.72E-09,-0.674855073,-1.14E-08,-0.674852345,-1.72E-08,-0.67485547,-5.72E-08,-0.674855523,-5.72E-07,-0.674791454,-5.74E-10
-0.138079922,-0.673651741,-5.69E-09,-0.673651,-1.14E-08,-0.673649552,-1.71E-08,-0.673652447,-5.69E-08,-0.673652457,-5.69E-07,-0.673591404,-5.71E-10
-0.135519766,-0.671246265,-5.62E-09,-0.671242856,-1.12E-08,-0.671243966,-1.69E-08,-0.671246402,-5.62E-08,-0.671246324,-5.62E-07,-0.671191304,-5.64E-10
-0.130399453,-0.666442725,-5.47E-09,-0.666445082,-1.09E-08,-0.666445129,-1.64E-08,-0.666448367,-5.47E-08,-0.66644819,-5.47E-07,-0.666391104,-5.49E-10
-0.13,-0.666068187,-5.46E-09,-0.666071293,-1.09E-08,-0.666071091,-1.64E-08,-0.666074439,-5.46E-08,-0.666074257,-5.46E-07,-0.666016624,-5.48E-10
-0.129201074,-0.665319092,-5.44E-09,-0.665323698,-1.09E-08,-0.665322997,-1.63E-08,-0.665326565,-5.44E-08,-0.665326371,-5.44E-07,-0.665267646,-5.46E-10
-0.127603223,-0.663820901,-5.40E-09,-0.663828508,-1.08E-08,-0.663826807,-1.62E-08,-0.663830818,-5.39E-08,-0.663830601,-5.39E-07,-0.663769689,-5.41E-10
-0.12440752,-0.66082452,-5.31E-09,-0.660838127,-1.06E-08,-0.660834429,-1.59E-08,-0.660839322,-5.30E-08,-0.660839059,-5.30E-07,-0.660773776,-5.32E-10
-0.12,-0.65671241,-5.17E-09,-0.656727355,-1.03E-08,-0.656723198,-1.55E-08,-0.656727026,-5.17E-08,-0.656727177,-5.17E-07,-0.656710338,-5.17E-10
-0.119360859,-0.656116849,-5.15E-09,-0.656131747,-1.03E-08,-0.656127605,-1.54E-08,-0.656131199,-5.15E-08,-0.656131427,-5.15E-07,-0.656123383,-5.14E-10
-0.118082539,-0.654925689,-5.11E-09,-0.654940496,-1.02E-08,-0.654936384,-1.53E-08,-0.654939509,-5.11E-08,-0.654939892,-5.11E-07,-0.654949438,-5.10E-10
-0.115525898,-0.652543369,-5.03E-09,-0.652557995,-1.01E-08,-0.652553941,-1.51E-08,-0.652556129,-5.03E-08,-0.652556821,-5.03E-07,-0.652601546,-5.00E-10
-0.110412617,-0.647787871,-4.87E-09,-0.647802064,-9.74E-09,-0.647798148,-1.46E-08,-0.647799824,-4.87E-08,-0.647800902,-4.87E-07,-0.647862135,-4.84E-10
-0.11,-0.64740497,-4.86E-09,-0.647419132,-9.71E-09,-0.647415226,-1.46E-08,-0.647416989,-4.86E-08,-0.647418077,-4.86E-07,-0.647475314,-4.82E-10
-0.109174805,-0.646639203,-4.83E-09,-0.646653304,-9.66E-09,-0.646649418,-1.45E-08,-0.646651354,-4.83E-08,-0.646652463,-4.83E-07,-0.646701708,-4.80E-10
-0.107524414,-0.645107671,-4.78E-09,-0.645121648,-9.55E-09,-0.645117803,-1.43E-08,-0.645120085,-4.78E-08,-0.645121235,-4.78E-07,-0.645154497,-4.75E-10
-0.104223633,-0.642044606,-4.67E-09,-0.642058336,-9.33E-09,-0.642054571,-1.40E-08,-0.642057547,-4.67E-08,-0.642058779,-4.67E-07,-0.642060075,-4.66E-10
-0.1,-0.638136654,-4.53E-09,-0.638148081,-9.05E-09,-0.638145074,-1.36E-08,-0.638148286,-4.53E-08,-0.638149238,-4.53E-07,-0.63813926,-4.53E-10
-0.099339844,-0.637527799,-4.51E-09,-0.637538551,-9.01E-09,-0.637535769,-1.35E-08,-0.637538911,-4.50E-08,-0.637539755,-4.50E-07,-0.637533005,-4.50E-10
-0.098019531,-0.63631009,-4.46E-09,-0.636319491,-8.91E-09,-0.636317158,-1.34E-08,-0.636320162,-4.46E-08,-0.636320789,-4.46E-07,-0.636320496,-4.45E-10
-0.095378906,-0.633874671,-4.37E-09,-0.63388137,-8.73E-09,-0.633879936,-1.31E-08,-0.633882662,-4.37E-08,-0.633882857,-4.37E-07,-0.633895477,-4.36E-10
-0.090097656,-0.629007892,-4.18E-09,-0.629010189,-8.36E-09,-0.629010216,-1.25E-08,-0.629012713,-4.18E-08,-0.629012268,-4.18E-07,-0.62904544,-4.16E-10
-0.09,-0.628918192,-4.18E-09,-0.62892048,-8.35E-09,-0.62892051,-1.25E-08,-0.628923027,-4.18E-08,-0.628922587,-4.18E-07,-0.628955757,-4.16E-10
-0.089804687,-0.628738791,-4.17E-09,-0.628741063,-8.34E-09,-0.628741099,-1.25E-08,-0.628743656,-4.17E-08,-0.628743224,-4.17E-07,-0.628776392,-4.15E-10
-0.089414062,-0.628379989,-4.16E-09,-0.628382229,-8.31E-09,-0.628382275,-1.25E-08,-0.628384914,-4.16E-08,-0.628384499,-4.16E-07,-0.628417661,-4.14E-10
-0.088632812,-0.627662386,-4.13E-09,-0.627664561,-8.25E-09,-0.627664628,-1.24E-08,-0.62766743,-4.13E-08,-0.627667049,-4.13E-07,-0.6277002,-4.11E-10
-0.087070312,-0.62622718,-4.07E-09,-0.626229224,-8.14E-09,-0.626229334,-1.22E-08,-0.626232462,-4.07E-08,-0.62623215,-4.07E-07,-0.626265278,-4.05E-10
-0.083945312,-0.623356768,-3.95E-09,-0.62335855,-7.91E-09,-0.623358745,-1.19E-08,-0.623362525,-3.95E-08,-0.623362351,-3.95E-07,-0.623395433,-3.94E-10
-0.08,-0.619734495,-3.81E-09,-0.619735936,-7.62E-09,-0.619736238,-1.14E-08,-0.619740708,-3.81E-08,-0.619740712,-3.81E-07,-0.619772254,-3.79E-10
-0.079375,-0.619163899,-3.78E-09,-0.619165284,-7.57E-09,-0.619165604,-1.14E-08,-0.619169974,-3.78E-08,-0.619170016,-3.78E-07,-0.619198285,-3.77E-10
-0.078125,-0.618022707,-3.74E-09,-0.618023981,-7.47E-09,-0.618024337,-1.12E-08,-0.618028505,-3.73E-08,-0.618028625,-3.73E-07,-0.618050347,-3.72E-10
-0.075625,-0.615748043,-3.64E-09,-0.615749292,-7.27E-09,-0.615749708,-1.09E-08,-0.615753693,-3.64E-08,-0.61575398,-3.64E-07,-0.615762915,-3.63E-10
-0.070625,-0.611212415,-3.44E-09,-0.611213659,-6.88E-09,-0.611214074,-1.03E-08,-0.611217077,-3.44E-08,-0.611217667,-3.44E-07,-0.611197788,-3.45E-10
-0.07,-0.610645462,-3.42E-09,-0.610646705,-6.84E-09,-0.610647119,-1.03E-08,-0.61065,-3.42E-08,-0.610650628,-3.42E-07,-0.610627147,-3.43E-10
-0.069,-0.60974002,-3.38E-09,-0.609741255,-6.76E-09,-0.609741666,-1.01E-08,-0.609744388,-3.38E-08,-0.609745034,-3.38E-07,-0.609720203,-3.39E-10
-0.067,-0.607937449,-3.30E-09,-0.607938681,-6.59E-09,-0.607939092,-9.89E-09,-0.607941814,-3.30E-08,-0.607942308,-3.30E-07,-0.607933003,-3.30E-10
-0.063,-0.604332305,-3.13E-09,-0.604333535,-6.26E-09,-0.604333944,-9.39E-09,-0.604336664,-3.13E-08,-0.604336857,-3.13E-07,-0.604358602,-3.12E-10
-0.06,-0.601628448,-3.01E-09,-0.601629675,-6.01E-09,-0.601630084,-9.01E-09,-0.601632802,-3.01E-08,-0.601632769,-3.01E-07,-0.601677801,-2.98E-10
-0.0592,-0.600907419,-2.97E-09,-0.600908645,-5.94E-09,-0.600909054,-8.92E-09,-0.600911772,-2.97E-08,-0.600911678,-2.97E-07,-0.600962921,-2.95E-10
-0.0576,-0.599468782,-2.90E-09,-0.599469999,-5.81E-09,-0.59947078,-8.71E-09,-0.599473329,-2.90E-08,-0.599473218,-2.90E-07,-0.59953316,-2.88E-10
-0.0544,-0.596603116,-2.76E-09,-0.59660433,-5.53E-09,-0.596607146,-8.29E-09,-0.596608879,-2.76E-08,-0.59660908,-2.76E-07,-0.596673639,-2.73E-10
-0.05,-0.592662824,-2.57E-09,-0.592664035,-5.14E-09,-0.592669648,-7.71E-09,-0.592670261,-2.57E-08,-0.59267089,-2.57E-07,-0.592741798,-2.54E-10
-0.04936,-0.592089691,-2.54E-09,-0.592090901,-5.08E-09,-0.592096921,-7.62E-09,-0.592097371,-2.54E-08,-0.592098063,-2.54E-07,-0.592169894,-2.51E-10
-0.048079922,-0.590943355,-2.49E-09,-0.590944564,-4.97E-09,-0.590951398,-7.45E-09,-0.590951521,-2.48E-08,-0.590952338,-2.48E-07,-0.591026016,-2.45E-10
-0.045519766,-0.588662093,-2.37E-09,-0.588663289,-4.74E-09,-0.588669798,-7.10E-09,-0.588670026,-2.37E-08,-0.588670887,-2.37E-07,-0.58873826,-2.34E-10
-0.040399453,-0.584115523,-2.13E-09,-0.584116715,-4.26E-09,-0.584120016,-6.38E-09,-0.584121526,-2.13E-08,-0.584122205,-2.13E-07,-0.584162747,-2.11E-10
-0.04,-0.58376083,-2.11E-09,-0.583762022,-4.22E-09,-0.583765072,-6.32E-09,-0.583766682,-2.11E-08,-0.583767347,-2.11E-07,-0.583805795,-2.09E-10
-0.039201074,-0.583051426,-2.07E-09,-0.583052617,-4.14E-09,-0.583055167,-6.21E-09,-0.583056976,-2.07E-08,-0.583057613,-2.07E-07,-0.583091875,-2.05E-10
-0.037603223,-0.581632617,-2.00E-09,-0.581633807,-3.99E-09,-0.581635356,-5.99E-09,-0.581637565,-2.00E-08,-0.581638146,-2.00E-07,-0.581664035,-1.98E-10
-0.03440752,-0.578805105,-1.84E-09,-0.57880503,-3.68E-09,-0.57880584,-5.53E-09,-0.578808321,-1.84E-08,-0.578808835,-1.84E-07,-0.578833178,-1.83E-10
-0.03,-0.574924277,-1.62E-09,-0.574920126,-3.25E-09,-0.574922294,-4.87E-09,-0.57492423,-1.62E-08,-0.574924755,-1.62E-07,-0.574976668,-1.60E-10
-0.029360859,-0.574361513,-1.59E-09,-0.574356771,-3.18E-09,-0.574359135,-4.77E-09,-0.574360992,-1.59E-08,-0.574361519,-1.59E-07,-0.57441743,-1.57E-10
-0.028082539,-0.57323595,-1.53E-09,-0.573230026,-3.05E-09,-0.573232784,-4.58E-09,-0.573234483,-1.53E-08,-0.573235012,-1.53E-07,-0.573298919,-1.50E-10
-0.025525898,-0.570984824,-1.40E-09,-0.570976535,-2.80E-09,-0.570980081,-4.20E-09,-0.570981464,-1.40E-08,-0.570981999,-1.40E-07,-0.571061899,-1.36E-10
-0.020412617,-0.566504555,-1.13E-09,-0.566502584,-2.26E-09,-0.566504012,-3.39E-09,-0.566505488,-1.13E-08,-0.566506249,-1.13E-07,-0.566587857,-1.10E-10
-0.02,-0.566143516,-1.11E-09,-0.566142295,-2.22E-09,-0.566143473,-3.33E-09,-0.566144974,-1.11E-08,-0.566145758,-1.11E-07,-0.566226824,-1.07E-10
-0.019174805,-0.565421471,-1.07E-09,-0.565421751,-2.13E-09,-0.565422429,-3.20E-09,-0.565423979,-1.07E-08,-0.565424811,-1.07E-07,-0.565504791,-1.03E-10
-0.017524414,-0.563977382,-9.79E-10,-0.563980663,-1.96E-09,-0.563980341,-2.93E-09,-0.563981991,-9.79E-09,-0.563982916,-9.79E-08,-0.564060725,-9.44E-11
-0.014223633,-0.561089204,-8.06E-10,-0.561098486,-1.60E-09,-0.561096165,-2.41E-09,-0.561098013,-8.04E-09,-0.561099127,-8.03E-08,-0.561172593,-7.70E-11
-0.01,-0.55742571,-5.71E-10,-0.557431851,-1.14E-09,-0.55743056,-1.71E-09,-0.557431759,-5.70E-09,-0.557432889,-5.69E-08,-0.55747698,-5.49E-11
-0.009339844,-0.556855206,-5.33E-10,-0.556860169,-1.06E-09,-0.556859271,-1.59E-09,-0.556860313,-5.32E-09,-0.556861433,-5.32E-08,-0.556899354,-5.14E-11
-0.008019531,-0.555714197,-4.58E-10,-0.555716807,-9.13E-10,-0.555716694,-1.37E-09,-0.555717421,-4.58E-09,-0.555718521,-4.58E-08,-0.555744101,-4.45E-11
-0.005378906,-0.553432179,-3.07E-10,-0.553430082,-6.16E-10,-0.553431539,-9.23E-10,-0.553431637,-3.09E-09,-0.553432697,-3.09E-08,-0.553433595,-3.06E-11
-9.77E-05,-0.548877384,-1.97E-12,-0.5488683,-1.16E-11,-0.548872074,-1.31E-11,-5.49E-01,-5.99E-11,-5.49E-01,-5.86E-10,-5.49E-01,-1.86E-12
0,-0.548793678,3.89E-12,-0.548784594,1.57E-13,-0.548788369,4.44E-12,-0.548787531,-1.27E-12,-0.548788524,3.30E-13,-0.548753112,-1.27E-12
0.000195313,-0.548626268,1.56E-11,-0.548617184,2.36E-11,-0.548620958,3.96E-11,-0.54862012,1.16E-10,-0.548621114,1.17E-09,-0.548585704,-9.99E-14
0.000585938,-0.548291447,3.91E-11,-0.548282363,7.05E-11,-0.548286137,1.10E-10,-0.548285299,3.50E-10,-0.548286294,3.52E-09,-0.548250889,2.24E-12
0.001367188,-0.547621805,8.59E-11,-0.54761272,1.64E-10,-0.547616495,2.51E-10,-0.547615656,8.19E-10,-0.547616653,8.20E-09,-0.547581257,6.93E-12
0.002929688,-0.546282522,1.80E-10,-0.546273436,3.52E-10,-0.54627721,5.32E-10,-0.546276371,1.76E-09,-0.546277372,1.76E-08,-0.546241994,1.63E-11
0.006054688,-0.543603955,3.67E-10,-0.543594867,7.27E-10,-0.54359864,1.09E-09,-0.5435978,3.63E-09,-0.54359881,3.63E-08,-0.543563468,3.51E-11
0.01,-0.540236246,6.03E-10,-0.540226583,1.20E-09,-0.540230593,1.80E-09,-0.540229649,5.99E-09,-0.540230724,5.99E-08,-0.540193687,5.86E-11
0.010625,-0.539709302,6.41E-10,-0.539699742,1.28E-09,-0.539703709,1.92E-09,-0.539702881,6.37E-09,-0.539703936,6.37E-08,-0.539670958,6.26E-11
0.011875,-0.538660485,7.20E-10,-0.538650924,1.43E-09,-0.53865489,2.15E-09,-0.538654468,7.16E-09,-0.538655496,7.16E-08,-0.538633742,7.09E-11
0.014375,-0.536562849,8.77E-10,-0.536553286,1.75E-09,-0.536557251,2.62E-09,-0.536557643,8.74E-09,-0.536558617,8.74E-08,-0.536559309,8.75E-11
0.019375,-0.532367577,1.19E-09,-0.532358011,2.38E-09,-0.532361975,3.57E-09,-0.532363991,1.19E-08,-0.532364857,1.19E-07,-0.532410443,1.21E-10
0.02,-0.531843168,1.23E-09,-0.531833601,2.45E-09,-0.531837565,3.69E-09,-0.531839785,1.23E-08,-0.531840637,1.23E-07,-0.531891834,1.25E-10
0.021,-0.531004114,1.29E-09,-0.530994546,2.58E-09,-0.53099851,3.88E-09,-0.531001054,1.29E-08,-0.531001885,1.29E-07,-0.531062061,1.32E-10
0.023,-0.529334573,1.42E-09,-0.529325125,2.84E-09,-0.529329038,4.26E-09,-0.529331621,1.42E-08,-0.529332427,1.42E-07,-0.529402515,1.45E-10
0.027,-0.526021019,1.69E-09,-0.526011569,3.38E-09,-0.526015481,5.07E-09,-0.526016512,1.69E-08,-0.526017374,1.69E-07,-0.526083422,1.71E-10
0.03,-0.523535854,1.89E-09,-0.523526401,3.78E-09,-0.523530313,5.67E-09,-0.523530181,1.89E-08,-0.523531084,1.89E-07,-0.523594102,1.91E-10
0.0308,-0.522873143,1.95E-09,-0.52286369,3.89E-09,-0.522867601,5.83E-09,-0.522867159,1.94E-08,-0.522868073,1.94E-07,-0.522930284,1.97E-10
0.0324,-0.521547721,2.05E-09,-0.521538268,4.10E-09,-0.521542178,6.16E-09,-0.521541116,2.05E-08,-0.521542052,2.05E-07,-0.521602647,2.07E-10
0.0356,-0.518908441,2.27E-09,-0.518901388,4.54E-09,-0.518904485,6.81E-09,-0.518903206,2.27E-08,-0.518904059,2.27E-07,-0.518947372,2.28E-10
0.04,-0.515301739,2.58E-09,-0.515302227,5.17E-09,-0.515302812,7.75E-09,-0.515303123,2.58E-08,-0.515303658,2.58E-07,-0.51529637,2.58E-10
0.04064,-0.514777127,2.63E-09,-0.514778713,5.26E-09,-0.514778932,7.89E-09,-0.514779475,2.63E-08,-0.514779963,2.63E-07,-0.514765316,2.62E-10
0.041920078,-0.513727841,2.72E-09,-0.513731621,5.44E-09,-0.513731109,8.16E-09,-0.513732114,2.72E-08,-0.513732509,2.72E-07,-0.513703141,2.70E-10
0.044480234,-0.511629268,2.90E-09,-0.511637436,5.81E-09,-0.511635462,8.70E-09,-0.511637392,2.90E-08,-0.511637602,2.90E-07,-0.511578792,2.87E-10
0.049600547,-0.507474478,3.28E-09,-0.50748329,6.56E-09,-0.507479349,9.84E-09,-0.507482187,3.28E-08,-0.507482291,3.28E-07,-0.507439065,3.26E-10
0.05,-0.507152445,3.31E-09,-0.507160924,6.62E-09,-0.507156872,9.93E-09,-0.507159739,3.31E-08,-0.507159848,3.31E-07,-0.507121138,3.29E-10
0.050798926,-0.506508363,3.37E-09,-0.506516178,6.74E-09,-0.506511904,1.01E-08,-0.506514827,3.37E-08,-0.506514946,3.37E-07,-0.506485268,3.35E-10
0.052396777,-0.5052202,3.49E-09,-0.505226684,6.98E-09,-0.505221967,1.05E-08,-0.505225003,3.49E-08,-0.505225142,3.49E-07,-0.505213528,3.48E-10
0.05559248,-0.502643875,3.73E-09,-0.502647698,7.46E-09,-0.502642092,1.12E-08,-0.502645356,3.73E-08,-0.502645534,3.73E-07,-0.502670048,3.73E-10
0.06,-0.499101714,4.07E-09,-0.499103705,8.14E-09,-0.499097588,1.22E-08,-0.49910068,4.07E-08,-0.499100855,4.07E-07,-0.499162075,4.08E-10
0.060639141,-0.498592746,4.12E-09,-0.498595254,8.24E-09,-0.498589309,1.24E-08,-0.498592202,4.12E-08,-0.498592354,4.12E-07,-0.498653379,4.13E-10
0.061917461,-0.497574777,4.22E-09,-0.49757832,8.45E-09,-0.497572719,1.27E-08,-0.497575214,4.22E-08,-0.497575319,4.22E-07,-0.497635956,4.24E-10
0.064474102,-0.495539594,4.43E-09,-0.49554551,8.86E-09,-0.495540324,1.33E-08,-0.495542121,4.43E-08,-0.495542134,4.43E-07,-0.49560431,4.44E-10
0.069587383,-0.491528319,4.83E-09,-0.491537361,9.66E-09,-0.491534006,1.45E-08,-0.491534206,4.83E-08,-0.491534094,4.83E-07,-0.491579023,4.84E-10
0.07,-0.491204628,4.86E-09,-0.491213922,9.73E-09,-0.491210715,1.46E-08,-0.491210787,4.86E-08,-0.491210664,4.86E-07,-0.491254202,4.87E-10
0.070825195,-0.490557278,4.92E-09,-0.490567076,9.86E-09,-0.490564165,1.48E-08,-0.490563979,4.93E-08,-0.490563836,4.93E-07,-0.49060459,4.94E-10
0.072475586,-0.489275076,5.06E-09,-0.489284917,1.01E-08,-0.489282381,1.52E-08,-0.489282098,5.06E-08,-0.489281965,5.06E-07,-0.489319838,5.07E-10
0.075776367,-0.486729562,5.33E-09,-0.486738602,1.07E-08,-0.486736331,1.60E-08,-0.48673648,5.34E-08,-0.486736432,5.34E-07,-0.486775523,5.35E-10
0.08,-0.483472358,5.68E-09,-0.483480374,1.14E-08,-0.483478443,1.71E-08,-0.483479144,5.69E-08,-0.483479205,5.69E-07,-0.483519853,5.71E-10
0.080660156,-0.482963255,5.74E-09,-0.482971111,1.15E-08,-0.482969233,1.72E-08,-0.48297002,5.74E-08,-0.482970098,5.74E-07,-0.48301099,5.77E-10
0.081980469,-0.48194505,5.85E-09,-0.481952585,1.17E-08,-0.481950813,1.76E-08,-0.481951773,5.85E-08,-0.481951885,5.85E-07,-0.481993264,5.88E-10
0.084621094,-0.479910348,6.07E-09,-0.479916939,1.21E-08,-0.479915465,1.82E-08,-0.479916724,6.07E-08,-0.47991691,6.07E-07,-0.479957812,6.10E-10
0.089902344,-0.475913732,6.54E-09,-0.475910666,1.31E-08,-0.475912411,1.96E-08,-0.475913214,6.54E-08,-0.475913953,6.54E-07,-0.475886908,6.55E-10
0.09,-0.47583983,6.55E-09,-0.475836585,1.31E-08,-0.47583839,1.96E-08,-0.475839184,6.55E-08,-0.475839933,6.55E-07,-0.475811633,6.56E-10
0.090195313,-0.475692026,6.56E-09,-0.475688424,1.31E-08,-0.475690348,1.97E-08,-0.475691125,6.57E-08,-0.475691895,6.57E-07,-0.475661082,6.58E-10
0.090585938,-0.475396419,6.60E-09,-0.475392102,1.32E-08,-0.475394264,1.98E-08,-0.475395008,6.60E-08,-0.475395818,6.60E-07,-0.475359979,6.61E-10
0.091367188,-0.474805203,6.67E-09,-0.474799458,1.33E-08,-0.474802096,2.00E-08,-0.474802773,6.67E-08,-0.474803665,6.67E-07,-0.474757775,6.68E-10
0.092929688,-0.473622773,6.81E-09,-0.47361417,1.36E-08,-0.473617761,2.04E-08,-0.473618302,6.81E-08,-0.473619358,6.81E-07,-0.473553365,6.81E-10
0.096054688,-0.471257911,7.08E-09,-0.471243594,1.42E-08,-0.47124909,2.12E-08,-0.471249361,7.08E-08,-0.471250744,7.08E-07,-0.471144546,7.07E-10
0.1,-0.468300539,7.44E-09,-0.468284657,1.49E-08,-0.468290649,2.23E-08,-0.468290579,7.44E-08,-0.468291989,7.44E-07,-0.468179273,7.44E-10
0.100625,-0.467835304,7.50E-09,-0.467819733,1.50E-08,-0.467825622,2.25E-08,-0.467825498,7.50E-08,-0.467826877,7.50E-07,-0.467716779,7.50E-10
0.101875,-0.466904835,7.62E-09,-0.466889887,1.52E-08,-0.466895568,2.28E-08,-0.466895337,7.62E-08,-0.466896653,7.62E-07,-0.466791791,7.62E-10
0.104375,-0.465043897,7.85E-09,-0.465030194,1.57E-08,-0.46503546,2.35E-08,-0.465035014,7.85E-08,-0.465036204,7.85E-07,-0.464941815,7.86E-10
0.109375,-0.461357996,8.31E-09,-0.461347681,1.66E-08,-0.461351859,2.49E-08,-0.461351144,8.31E-08,-0.461352058,8.31E-07,-0.461281235,8.33E-10
0.11,-0.460901007,8.37E-09,-0.460891364,1.67E-08,-0.460895318,2.51E-08,-0.460894594,8.37E-08,-0.460895458,8.37E-07,-0.460829114,8.39E-10
0.111,-0.460169825,8.46E-09,-0.460161257,1.69E-08,-0.460164852,2.54E-08,-0.460164115,8.46E-08,-0.460164899,8.46E-07,-0.460105719,8.49E-10
0.113,-0.458734673,8.65E-09,-0.458727049,1.73E-08,-0.458730316,2.60E-08,-0.458729393,8.65E-08,-0.458730058,8.65E-07,-0.458658929,8.67E-10
0.117,-0.455871518,9.04E-09,-0.455865091,1.81E-08,-0.455867957,2.71E-08,-0.45586659,9.04E-08,-0.455867062,9.04E-07,-0.45576535,9.05E-10
0.12,-0.453724153,9.33E-09,-0.453718622,1.87E-08,-0.453721189,2.80E-08,-0.453719488,9.33E-08,-0.453719816,9.33E-07,-0.453595166,9.33E-10
0.1208,-0.453151522,9.40E-09,-0.453146231,1.88E-08,-0.453148717,2.82E-08,-0.453146928,9.40E-08,-0.453147217,9.40E-07,-0.45301645,9.41E-10
0.1224,-0.45200626,9.56E-09,-0.452001447,1.91E-08,-0.452003774,2.87E-08,-0.452001807,9.56E-08,-0.452002018,9.56E-07,-0.451859019,9.56E-10
0.1256,-0.449721598,9.87E-09,-0.449717828,1.97E-08,-0.44971979,2.96E-08,-0.449717693,9.87E-08,-0.449717801,9.87E-07,-0.449562761,9.87E-10
0.13,-0.446637065,1.03E-08,-0.446634651,2.06E-08,-0.44663616,3.10E-08,-0.446635515,1.03E-07,-0.446635986,1.03E-06,-0.446509734,1.03E-09
0.13064,-0.446188406,1.04E-08,-0.446186189,2.08E-08,-0.446187632,3.11E-08,-0.446187198,1.04E-07,-0.446187722,1.04E-06,-0.446065658,1.04E-09
0.131920078,-0.445291033,1.05E-08,-0.44528921,2.10E-08,-0.445290521,3.15E-08,-0.44529051,1.05E-07,-0.44529114,1.05E-06,-0.44517745,1.05E-09
0.134480234,-0.443496286,1.08E-08,-0.443495252,2.15E-08,-0.4434963,3.23E-08,-0.443497133,1.08E-07,-0.443497974,1.08E-06,-0.443401036,1.08E-09
0.139600547,-0.439909044,1.13E-08,-0.439909485,2.26E-08,-0.439910022,3.39E-08,-0.439912422,1.13E-07,-0.439913642,1.13E-06,-0.439848206,1.13E-09
0.14,-0.439635776,1.13E-08,-0.439636069,2.27E-08,-0.439636656,3.40E-08,-0.43963898,1.13E-07,-0.439640187,1.13E-06,-0.439571038,1.14E-09
0.140798926,-0.439089228,1.14E-08,-0.439089224,2.28E-08,-0.43908991,3.43E-08,-0.439092084,1.14E-07,-0.439093265,1.14E-06,-0.439016688,1.14E-09
0.142396777,-0.438015197,1.16E-08,-0.43801461,2.32E-08,-0.438015523,3.48E-08,-0.438017411,1.16E-07,-0.438018619,1.16E-06,-0.437927862,1.16E-09
0.14559248,-0.435877988,1.19E-08,-0.435876261,2.39E-08,-0.435877554,3.58E-08,-0.435878613,1.19E-07,-0.435879776,1.19E-06,-0.43577426,1.19E-09
0.15,-0.432930346,1.24E-08,-0.432927045,2.48E-08,-0.432928862,3.72E-08,-0.432928779,1.24E-07,-0.43292988,1.24E-06,-0.432804009,1.24E-09
0.150639141,-0.432502905,1.25E-08,-0.432499375,2.49E-08,-0.432501268,3.74E-08,-0.43250102,1.25E-07,-0.432502111,1.25E-06,-0.432373288,1.24E-09
0.151917461,-0.431647995,1.26E-08,-0.431644008,2.52E-08,-0.431646054,3.78E-08,-0.431645475,1.26E-07,-0.431646548,1.26E-06,-0.431511821,1.26E-09
0.154474102,-0.429939578,1.29E-08,-0.429934994,2.57E-08,-0.429937218,3.86E-08,-0.429936033,1.29E-07,-0.429937035,1.29E-06,-0.429797683,1.28E-09
0.159587383,-0.426597499,1.34E-08,-0.426601621,2.68E-08,-0.426600943,4.03E-08,-0.426599865,1.34E-07,-0.426600317,1.34E-06,-0.426495387,1.34E-09
0.16,-0.426327809,1.35E-08,-0.426332634,2.69E-08,-0.426331722,4.04E-08,-0.426330653,1.35E-07,-0.42633106,1.35E-06,-0.426228907,1.34E-09
0.160825195,-0.425788455,1.36E-08,-0.425794685,2.71E-08,-0.425793305,4.07E-08,-0.425792253,1.36E-07,-0.425792571,1.36E-06,-0.425695974,1.35E-09
0.162475586,-0.424709747,1.37E-08,-0.424718787,2.75E-08,-0.424716471,4.12E-08,-0.424715453,1.37E-07,-0.424715593,1.37E-06,-0.424630106,1.37E-09
0.165776367,-0.422552331,1.41E-08,-0.422566991,2.82E-08,-0.422562802,4.23E-08,-0.422561853,1.41E-07,-0.422561639,1.41E-06,-0.422498372,1.41E-09
0.17,-0.419797576,1.46E-08,-0.419818263,2.91E-08,-0.419812034,4.37E-08,-0.419811194,1.46E-07,-0.419810574,1.46E-06,-0.419775315,1.45E-09
0.170660156,-0.419379967,1.46E-08,-0.419401298,2.93E-08,-0.419394893,4.39E-08,-0.419394013,1.46E-07,-0.419393369,1.46E-06,-0.41935804,1.46E-09
0.171980469,-0.418563423,1.48E-08,-0.418583369,2.96E-08,-0.418577425,4.44E-08,-0.418576426,1.48E-07,-0.418575825,1.48E-06,-0.418532852,1.48E-09
0.174621094,-0.416930333,1.51E-08,-0.416947511,3.02E-08,-0.416942489,4.53E-08,-0.416941253,1.51E-07,-0.416940736,1.51E-06,-0.416882475,1.51E-09
0.179902344,-0.413664154,1.57E-08,-0.413675794,3.14E-08,-0.413672618,4.70E-08,-0.413670907,1.57E-07,-0.413670558,1.57E-06,-0.413581721,1.57E-09
0.18,-0.413603758,1.57E-08,-0.413615296,3.14E-08,-0.413612154,4.71E-08,-0.413610434,1.57E-07,-0.413610089,1.57E-06,-0.413520687,1.57E-09
0.180195313,-0.413482968,1.57E-08,-0.413494301,3.14E-08,-0.413491227,4.71E-08,-0.41348949,1.57E-07,-0.41348915,1.57E-06,-0.413398617,1.57E-09
0.180585938,-0.413241387,1.58E-08,-0.41325231,3.15E-08,-0.413249373,4.73E-08,-0.4132476,1.58E-07,-0.413247273,1.58E-06,-0.413154479,1.57E-09
0.181367188,-0.412758224,1.58E-08,-0.412768328,3.17E-08,-0.412765664,4.75E-08,-0.412763821,1.58E-07,-0.412763519,1.58E-06,-0.412666202,1.58E-09
0.182929688,-0.411791899,1.60E-08,-0.411800365,3.20E-08,-0.411798246,4.81E-08,-0.411796263,1.60E-07,-0.411796011,1.60E-06,-0.411689647,1.60E-09
0.186054688,-0.409863262,1.64E-08,-0.409868437,3.28E-08,-0.409867306,4.91E-08,-0.409865132,1.64E-07,-0.409864998,1.64E-06,-0.409747077,1.64E-09
0.19,-0.407492862,1.68E-08,-0.407496434,3.37E-08,-0.407494226,5.05E-08,-0.407492163,1.68E-07,-0.407492398,1.68E-06,-0.407379905,1.68E-09
0.190625,-0.407117353,1.69E-08,-0.407120672,3.38E-08,-0.407118293,5.07E-08,-0.407116247,1.69E-07,-0.40711654,1.69E-06,-0.407004907,1.69E-09
0.191875,-0.406366335,1.71E-08,-0.406369146,3.41E-08,-0.406366426,5.12E-08,-0.406364415,1.71E-07,-0.406364826,1.71E-06,-0.406254912,1.70E-09
0.194375,-0.404864299,1.74E-08,-0.404866094,3.47E-08,-0.404862692,5.21E-08,-0.404860751,1.74E-07,-0.404861396,1.74E-06,-0.404754922,1.73E-09
0.199375,-0.401909951,1.79E-08,-0.401911014,3.59E-08,-0.401905651,5.38E-08,-0.401904739,1.79E-07,-0.401905788,1.79E-06,-0.401827063,1.79E-09
0.2,-0.401544485,1.80E-08,-0.401545548,3.60E-08,-0.401539927,5.40E-08,-0.401539228,1.80E-07,-0.401540316,1.80E-06,-0.401468023,1.80E-09
0.201,-0.40095974,1.81E-08,-0.400960802,3.62E-08,-0.400954768,5.44E-08,-0.40095441,1.81E-07,-0.40095556,1.81E-06,-0.400893558,1.81E-09
0.203,-0.399796709,1.84E-08,-0.399797739,3.67E-08,-0.39979138,5.51E-08,-0.399791538,1.84E-07,-0.399792763,1.84E-06,-0.399749948,1.84E-09
0.207,-0.39752977,1.88E-08,-0.397530799,3.77E-08,-0.39752599,5.65E-08,-0.397525775,1.88E-07,-0.397527139,1.88E-06,-0.397499958,1.88E-09
0.21,-0.395829565,1.92E-08,-0.395830594,3.84E-08,-0.395826948,5.76E-08,-0.395826453,1.92E-07,-0.395827922,1.92E-06,-0.395812466,1.92E-09
0.2108,-0.395376178,1.93E-08,-0.395377206,3.86E-08,-0.39537387,5.79E-08,-0.3953733,1.93E-07,-0.395374797,1.93E-06,-0.395362468,1.93E-09
0.2124,-0.394469402,1.95E-08,-0.39447043,3.90E-08,-0.394467715,5.84E-08,-0.394466995,1.95E-07,-0.394468548,1.95E-06,-0.394462472,1.95E-09
0.2156,-0.39265585,1.99E-08,-0.392656878,3.97E-08,-0.392655403,5.96E-08,-0.392654385,1.99E-07,-0.392656049,1.99E-06,-0.392662481,1.98E-09
0.22,-0.390168443,2.04E-08,-0.39016969,4.08E-08,-0.390169865,6.12E-08,-0.390168374,2.04E-07,-0.390170233,2.04E-06,-0.390191481,2.04E-09
0.22064,-0.389822798,2.05E-08,-0.389824123,4.09E-08,-0.389824368,6.14E-08,-0.38982296,2.05E-07,-0.389824692,2.05E-06,-0.389844075,2.04E-09
0.221920078,-0.38914325,2.06E-08,-0.389144494,4.12E-08,-0.389144766,6.18E-08,-0.389143611,2.06E-07,-0.389145146,2.06E-06,-0.389164851,2.06E-09
0.224480234,-0.387784155,2.09E-08,-0.387785236,4.18E-08,-0.387785562,6.28E-08,-0.387784913,2.09E-07,-0.387786054,2.09E-06,-0.387806404,2.09E-09
0.229600547,-0.385065965,2.15E-08,-0.38506672,4.31E-08,-0.385067155,6.46E-08,-0.385067517,2.15E-07,-0.38506787,2.15E-06,-0.38508951,2.15E-09
0.23,-0.38485391,2.16E-08,-0.384854639,4.32E-08,-0.384855083,6.48E-08,-0.384855524,2.16E-07,-0.384855815,2.16E-06,-0.384877556,2.16E-09
0.230798926,-0.384429789,2.17E-08,-0.384430468,4.34E-08,-0.384430928,6.51E-08,-0.384431526,2.17E-07,-0.384431695,2.17E-06,-0.384453637,2.17E-09
0.232396777,-0.383581547,2.19E-08,-0.383582124,4.38E-08,-0.383582618,6.56E-08,-0.383583532,2.19E-07,-0.383583455,2.19E-06,-0.3836058,2.19E-09
0.23559248,-0.381885063,2.23E-08,-0.381885436,4.45E-08,-0.381885998,6.68E-08,-0.381887544,2.23E-07,-0.381886974,2.23E-06,-0.381910124,2.23E-09
0.24,-0.379560638,2.28E-08,-0.379561631,4.56E-08,-0.379561962,6.84E-08,-0.379564327,2.28E-07,-0.379563236,2.28E-06,-0.379588251,2.28E-09
0.240639141,-0.379232808,2.29E-08,-0.379234437,4.58E-08,-0.379234556,6.87E-08,-0.379237068,2.29E-07,-0.379235966,2.29E-06,-0.379262415,2.29E-09
0.241917461,-0.378595485,2.30E-08,-0.37859743,4.61E-08,-0.378597115,6.91E-08,-0.378599809,2.30E-07,-0.378598716,2.30E-06,-0.378632281,2.30E-09
0.244474102,-0.377330343,2.34E-08,-0.377332261,4.67E-08,-0.37733107,7.01E-08,-0.377333849,2.34E-07,-0.377332886,2.34E-06,-0.377380048,2.34E-09
0.249587383,-0.37480006,2.40E-08,-0.374801924,4.79E-08,-0.374798978,7.19E-08,-0.374801928,2.40E-07,-0.374801224,2.40E-06,-0.374875581,2.40E-09
0.25,-0.374595878,2.40E-08,-0.374597737,4.80E-08,-0.374594651,7.21E-08,-0.374597614,2.40E-07,-0.374596931,2.40E-06,-0.374673483,2.40E-09
0.250825195,-0.374187534,2.41E-08,-0.374189385,4.82E-08,-0.374186015,7.24E-08,-0.374189005,2.41E-07,-0.374188365,2.41E-06,-0.374269305,2.41E-09
0.252475586,-0.373370846,2.43E-08,-0.373372679,4.86E-08,-0.373368743,7.30E-08,-0.373371789,2.43E-07,-0.373371232,2.43E-06,-0.37346095,2.43E-09
0.255776367,-0.371737469,2.47E-08,-0.371739268,4.94E-08,-0.3717342,7.42E-08,-0.371737355,2.47E-07,-0.371736966,2.47E-06,-0.371844239,2.47E-09
0.26,-0.369661387,2.52E-08,-0.369662377,5.05E-08,-0.369656333,7.57E-08,-0.369659478,2.52E-07,-0.36965928,2.52E-06,-0.369780009,2.53E-09
0.260660156,-0.369347889,2.53E-08,-0.369348235,5.06E-08,-0.369341998,7.60E-08,-0.369345241,2.53E-07,-0.369345043,2.53E-06,-0.369465649,2.53E-09
0.261980469,-0.368741623,2.55E-08,-0.368740622,5.10E-08,-0.368735319,7.65E-08,-0.368738458,2.55E-07,-0.368738314,2.55E-06,-0.368845909,2.55E-09
0.264621094,-0.36752909,2.58E-08,-0.367525395,5.16E-08,-0.367521962,7.74E-08,-0.367524891,2.58E-07,-0.367524855,2.58E-06,-0.367606429,2.58E-09
0.269902344,-0.365104026,2.64E-08,-0.365094942,5.29E-08,-0.365095247,7.93E-08,-0.365097759,2.64E-07,-0.365097939,2.64E-06,-0.365127468,2.65E-09
0.27,-0.365059183,2.65E-08,-0.36505,5.29E-08,-0.365050374,7.94E-08,-0.365052879,2.65E-07,-0.365053062,2.65E-06,-0.365081629,2.65E-09
0.270195313,-0.364969499,2.65E-08,-0.364960116,5.30E-08,-0.364960629,7.95E-08,-0.364963118,2.65E-07,-0.36496331,2.65E-06,-0.364989952,2.65E-09
0.270585938,-0.36479013,2.65E-08,-0.364780349,5.31E-08,-0.364781138,7.96E-08,-0.364783596,2.65E-07,-0.364783804,2.65E-06,-0.364806597,2.66E-09
0.271367188,-0.364431393,2.66E-08,-0.364420815,5.33E-08,-0.364422157,7.99E-08,-0.364424553,2.66E-07,-0.364424793,2.66E-06,-0.364439887,2.66E-09
0.272929688,-0.363713918,2.68E-08,-0.363701746,5.36E-08,-0.363704194,8.04E-08,-0.363706467,2.68E-07,-0.36370677,2.68E-06,-0.363706466,2.68E-09
0.276054688,-0.362278969,2.72E-08,-0.362263608,5.44E-08,-0.362268268,8.16E-08,-0.362270294,2.72E-07,-0.362270725,2.72E-06,-0.362239626,2.72E-09
0.28,-0.36048109,2.77E-08,-0.360462104,5.53E-08,-0.360469144,8.30E-08,-0.360471071,2.77E-07,-0.360471661,2.77E-06,-0.360404238,2.77E-09
0.280625,-0.360204042,2.77E-08,-0.360185131,5.55E-08,-0.360192145,8.32E-08,-0.36019414,2.77E-07,-0.360194742,2.77E-06,-0.360124981,2.78E-09
0.281875,-0.35966406,2.79E-08,-0.359647154,5.58E-08,-0.359653458,8.37E-08,-0.359655431,2.79E-07,-0.35965596,2.79E-06,-0.359592479,2.79E-09
0.284375,-0.358600551,2.82E-08,-0.358587234,5.64E-08,-0.358592343,8.46E-08,-0.358594367,2.82E-07,-0.358594725,2.82E-06,-0.358542471,2.82E-09
0.289375,-0.356473534,2.88E-08,-0.356467394,5.76E-08,-0.356470113,8.64E-08,-0.356472239,2.88E-07,-0.356472255,2.88E-06,-0.356442455,2.88E-09
0.29,-0.356207656,2.89E-08,-0.356202414,5.78E-08,-0.356204834,8.66E-08,-0.356206973,2.89E-07,-0.356206946,2.89E-06,-0.356179953,2.89E-09
0.291,-0.355782253,2.90E-08,-0.355778447,5.80E-08,-0.355780388,8.70E-08,-0.355782547,2.90E-07,-0.355782452,2.90E-06,-0.35575995,2.90E-09
0.293,-0.354931446,2.92E-08,-0.354930511,5.85E-08,-0.354931496,8.77E-08,-0.354933696,2.92E-07,-0.354933464,2.92E-06,-0.354919943,2.93E-09
0.297,-0.353236507,2.97E-08,-0.353241197,5.95E-08,-0.353240329,8.92E-08,-0.353242543,2.97E-07,-0.353242029,2.97E-06,-0.353244827,2.98E-09
0.3,-0.352010365,3.01E-08,-0.352017594,6.02E-08,-0.352015881,9.02E-08,-0.352017191,3.01E-07,-0.352016511,3.01E-06,-0.352020326,3.01E-09
0.3008,-0.351683394,3.02E-08,-0.3516913,6.03E-08,-0.351689362,9.05E-08,-0.35169043,3.02E-07,-0.351689706,3.02E-06,-0.351693792,3.02E-09
0.3024,-0.351029451,3.04E-08,-0.351038712,6.07E-08,-0.351036323,9.11E-08,-0.351036909,3.04E-07,-0.351036096,3.04E-06,-0.351040725,3.04E-09
0.3056,-0.349734247,3.07E-08,-0.349745143,6.15E-08,-0.349742175,9.22E-08,-0.349741844,3.07E-07,-0.349740936,3.07E-06,-0.349739898,3.08E-09
0.31,-0.34801781,3.13E-08,-0.348028707,6.25E-08,-0.348025739,9.38E-08,-0.348024346,3.13E-07,-0.348023457,3.13E-06,-0.347979881,3.13E-09
0.31064,-0.347768146,3.13E-08,-0.347779043,6.27E-08,-0.347776075,9.40E-08,-0.347774528,3.13E-07,-0.347773642,3.13E-06,-0.347723878,3.14E-09
0.311920078,-0.347268788,3.15E-08,-0.347279686,6.30E-08,-0.347276718,9.45E-08,-0.347274861,3.15E-07,-0.347273981,3.15E-06,-0.347211842,3.15E-09
0.314480234,-0.346288336,3.18E-08,-0.346299499,6.36E-08,-0.346296459,9.54E-08,-0.346294545,3.18E-07,-0.346293687,3.18E-06,-0.346215601,3.18E-09
0.319600547,-0.344366918,3.24E-08,-0.344378082,6.48E-08,-0.344375043,9.72E-08,-0.344374428,3.24E-07,-0.344373725,3.24E-06,-0.344295458,3.24E-09
0.32,-0.344217021,3.24E-08,-0.344228186,6.49E-08,-0.344225146,9.73E-08,-0.344224633,3.24E-07,-0.344223943,3.24E-06,-0.344145661,3.25E-09
0.320798926,-0.343917221,3.25E-08,-0.343928386,6.51E-08,-0.343925347,9.76E-08,-0.343925036,3.25E-07,-0.34392437,3.25E-06,-0.343846059,3.25E-09
0.322396777,-0.343317621,3.27E-08,-0.343328786,6.54E-08,-0.343325747,9.81E-08,-0.343325841,3.27E-07,-0.343325224,3.27E-06,-0.343246857,3.27E-09
0.32559248,-0.34211842,3.31E-08,-0.342129587,6.62E-08,-0.342126547,9.92E-08,-0.342127453,3.31E-07,-0.342126933,3.31E-06,-0.342048451,3.31E-09
0.33,-0.340476069,3.36E-08,-0.340487515,6.72E-08,-0.3404844,1.01E-07,-0.340486074,3.36E-07,-0.340485599,3.36E-06,-0.340404025,3.36E-09
0.330639141,-0.34024619,3.37E-08,-0.340257636,6.73E-08,-0.340254522,1.01E-07,-0.340256026,3.37E-07,-0.340255504,3.37E-06,-0.340172843,3.36E-09
0.331917461,-0.339796972,3.38E-08,-0.339807472,6.76E-08,-0.339804635,1.01E-07,-0.339805688,3.38E-07,-0.339805127,3.38E-06,-0.339733172,3.38E-09
0.334474102,-0.338922862,3.41E-08,-0.338931632,6.82E-08,-0.338929373,1.02E-07,-0.33892953,3.41E-07,-0.338928907,3.41E-06,-0.338880942,3.41E-09
0.339587383,-0.337174642,3.47E-08,-0.337179952,6.93E-08,-0.337178849,1.04E-07,-0.337177214,3.47E-07,-0.337176467,3.47E-06,-0.337176481,3.47E-09
0.34,-0.337033569,3.47E-08,-0.3370386,6.94E-08,-0.33703759,1.04E-07,-0.33703581,3.47E-07,-0.337035053,3.47E-06,-0.33703894,3.47E-09
0.340825195,-0.336751437,3.48E-08,-0.336755909,6.96E-08,-0.336755085,1.04E-07,-0.336753017,3.48E-07,-0.33675224,3.48E-06,-0.336763869,3.48E-09
0.342475586,-0.336187172,3.50E-08,-0.336190527,7.00E-08,-0.336190077,1.05E-07,-0.33618743,3.50E-07,-0.336186613,3.50E-06,-0.336213728,3.50E-09
0.345776367,-0.335075476,3.54E-08,-0.335077517,7.07E-08,-0.33507752,1.06E-07,-0.335074093,3.54E-07,-0.335073275,3.54E-06,-0.335113446,3.54E-09
0.35,-0.333687465,3.58E-08,-0.333689568,7.17E-08,-0.333689551,1.07E-07,-0.333686132,3.58E-07,-0.333685541,3.58E-06,-0.333705541,3.58E-09
0.350660156,-0.333470518,3.59E-08,-0.333472631,7.18E-08,-0.33347261,1.08E-07,-0.333469193,3.59E-07,-0.333468637,3.59E-06,-0.333485485,3.59E-09
0.351980469,-0.333036624,3.60E-08,-0.333038756,7.21E-08,-0.333038729,1.08E-07,-0.333035315,3.60E-07,-0.33303483,3.60E-06,-0.333045372,3.61E-09
0.354621094,-0.332168836,3.63E-08,-0.332171007,7.27E-08,-0.332170968,1.09E-07,-0.332167559,3.63E-07,-0.332167215,3.63E-06,-0.332165146,3.64E-09
0.359902344,-0.330440872,3.69E-08,-0.330442126,7.38E-08,-0.330442409,1.11E-07,-0.330438874,3.69E-07,-0.330438796,3.69E-06,-0.330417227,3.70E-09
0.36,-0.330410266,3.69E-08,-0.330411319,7.38E-08,-0.33041167,1.11E-07,-0.330408121,3.69E-07,-0.330408045,3.69E-06,-0.330387331,3.70E-09
0.360195313,-0.330349055,3.69E-08,-0.330349705,7.39E-08,-0.33035019,1.11E-07,-0.330346615,3.69E-07,-0.330346544,3.69E-06,-0.33032754,3.70E-09
0.360585938,-0.330226632,3.70E-08,-0.330226476,7.40E-08,-0.33022723,1.11E-07,-0.330223603,3.70E-07,-0.330223542,3.70E-06,-0.330207958,3.70E-09
0.361367188,-0.329982679,3.71E-08,-0.329981055,7.41E-08,-0.329982261,1.11E-07,-0.329978733,3.71E-07,-0.32997869,3.71E-06,-0.329969418,3.71E-09
0.362929688,-0.329516991,3.72E-08,-0.329513679,7.45E-08,-0.329515448,1.12E-07,-0.329512,3.72E-07,-0.329511927,3.72E-06,-0.329500655,3.73E-09
0.366054688,-0.328585616,3.76E-08,-0.328578927,7.51E-08,-0.32858182,1.13E-07,-0.328578535,3.76E-07,-0.328578401,3.76E-06,-0.32856313,3.76E-09
0.37,-0.327409755,3.80E-08,-0.327398803,7.60E-08,-0.327403115,1.14E-07,-0.327400034,3.80E-07,-0.327399823,3.80E-06,-0.327379505,3.80E-09
0.370625,-0.32722348,3.81E-08,-0.327211852,7.61E-08,-0.327216389,1.14E-07,-0.327213341,3.81E-07,-0.327213118,3.81E-06,-0.327192,3.81E-09
0.371875,-0.32685093,3.82E-08,-0.326837952,7.64E-08,-0.326842938,1.15E-07,-0.326839955,3.82E-07,-0.326839708,3.82E-06,-0.32681699,3.82E-09
0.374375,-0.326113493,3.85E-08,-0.326098953,7.69E-08,-0.326104481,1.15E-07,-0.326101668,3.85E-07,-0.326101433,3.85E-06,-0.326075989,3.85E-09
0.379375,-0.324679226,3.90E-08,-0.324669668,7.79E-08,-0.324673537,1.17E-07,-0.324671673,3.90E-07,-0.324671837,3.90E-06,-0.324647374,3.90E-09
0.38,-0.324499942,3.90E-08,-0.324491007,7.81E-08,-0.324494669,1.17E-07,-0.324492924,3.90E-07,-0.324493137,3.90E-06,-0.324468797,3.90E-09
0.381,-0.324213089,3.91E-08,-0.32420515,7.83E-08,-0.32420848,1.17E-07,-0.324206925,3.91E-07,-0.324207218,3.91E-06,-0.324183074,3.91E-09
0.383,-0.323639382,3.93E-08,-0.323633436,7.87E-08,-0.323636102,1.18E-07,-0.323634927,3.93E-07,-0.32363538,3.93E-06,-0.323611628,3.93E-09
0.387,-0.322491968,3.97E-08,-0.322490008,7.95E-08,-0.322491347,1.19E-07,-0.322490932,3.97E-07,-0.322491703,3.97E-06,-0.322468736,3.97E-09
0.39,-0.32166119,4.00E-08,-0.321660554,8.01E-08,-0.321661464,1.20E-07,-0.321661391,4.00E-07,-0.321662019,4.00E-06,-0.321611567,4.00E-09
0.3908,-0.321442122,4.01E-08,-0.321441709,8.02E-08,-0.321442545,1.20E-07,-0.321442546,4.01E-07,-0.321443099,4.01E-06,-0.321382988,4.01E-09
0.3924,-0.321003987,4.03E-08,-0.321004018,8.06E-08,-0.321004706,1.21E-07,-0.321004856,4.03E-07,-0.321005259,4.03E-06,-0.320925832,4.03E-09
0.3956,-0.320127716,4.06E-08,-0.320128636,8.12E-08,-0.32012903,1.22E-07,-0.320129476,4.06E-07,-0.320129579,4.06E-06,-0.320011518,4.06E-09
0.4,-0.318982686,4.10E-08,-0.31898368,8.21E-08,-0.318984012,1.23E-07,-0.318984086,4.10E-07,-0.318983866,4.10E-06,-0.318848345,4.10E-09
0.40064,-0.318817168,4.11E-08,-0.318818163,8.22E-08,-0.318818494,1.23E-07,-0.318818506,4.11E-07,-0.31881824,4.11E-06,-0.318679283,4.11E-09
0.401920078,-0.318492434,4.12E-08,-0.318493445,8.24E-08,-0.318493513,1.24E-07,-0.318493506,4.12E-07,-0.3184932,4.12E-06,-0.318351381,4.12E-09
0.404480234,-0.317859864,4.15E-08,-0.317860876,8.29E-08,-0.317859696,1.24E-07,-0.317859942,4.15E-07,-0.317859711,4.15E-06,-0.317748965,4.15E-09
0.409600547,-0.316594723,4.20E-08,-0.316595738,8.39E-08,-0.31659206,1.26E-07,-0.316592814,4.20E-07,-0.316592732,4.20E-06,-0.316544132,4.19E-09
0.41,-0.316496025,4.20E-08,-0.31649704,8.40E-08,-0.316493167,1.26E-07,-0.316493961,4.20E-07,-0.31649389,4.20E-06,-0.316450139,4.20E-09
0.410798926,-0.316298625,4.21E-08,-0.31629964,8.41E-08,-0.316295377,1.26E-07,-0.31629625,4.21E-07,-0.316296203,4.21E-06,-0.316262148,4.21E-09
0.412396777,-0.315903823,4.22E-08,-0.315904839,8.44E-08,-0.315899797,1.27E-07,-0.315900828,4.22E-07,-0.315900828,4.22E-06,-0.315886167,4.22E-09
0.41559248,-0.315123977,4.25E-08,-0.315125009,8.51E-08,-0.315119246,1.28E-07,-0.315120105,4.25E-07,-0.315120185,4.25E-06,-0.315134203,4.25E-09
0.42,-0.314080773,4.29E-08,-0.314081807,8.59E-08,-0.314078258,1.29E-07,-0.314077156,4.29E-07,-0.314077299,4.29E-06,-0.314097094,4.29E-09
0.420639141,-0.313929496,4.30E-08,-0.31393053,8.60E-08,-0.313927303,1.29E-07,-0.313925917,4.30E-07,-0.313926068,4.30E-06,-0.313946702,4.30E-09
0.421917461,-0.313626934,4.31E-08,-0.313627969,8.62E-08,-0.313625383,1.29E-07,-0.313623429,4.31E-07,-0.313623598,4.31E-06,-0.313645907,4.31E-09
0.424474102,-0.313021809,4.33E-08,-0.313022845,8.67E-08,-0.313021544,1.30E-07,-0.313018453,4.33E-07,-0.313018658,4.33E-06,-0.313044318,4.33E-09
0.429587383,-0.311831145,4.38E-08,-0.31183078,8.76E-08,-0.311831603,1.31E-07,-0.311827206,4.38E-07,-0.311827656,4.38E-06,-0.31184114,4.38E-09
0.43,-0.311737893,4.38E-08,-0.311737209,8.77E-08,-0.311738139,1.32E-07,-0.311733789,4.38E-07,-0.311734283,4.38E-06,-0.311744049,4.38E-09
0.430825195,-0.311551398,4.39E-08,-0.311550077,8.78E-08,-0.311551219,1.32E-07,-0.311546965,4.39E-07,-0.311547547,4.39E-06,-0.311549877,4.39E-09
0.432475586,-0.311178408,4.41E-08,-0.311175811,8.81E-08,-0.311177379,1.32E-07,-0.311173316,4.41E-07,-0.311174074,4.41E-06,-0.311161533,4.40E-09
0.435776367,-0.310432428,4.43E-08,-0.310427281,8.87E-08,-0.310429699,1.33E-07,-0.310426019,4.43E-07,-0.310427128,4.43E-06,-0.310384844,4.43E-09
0.44,-0.309507436,4.47E-08,-0.309499944,8.94E-08,-0.309503104,1.34E-07,-0.30950046,4.47E-07,-0.309501827,4.47E-06,-0.309424836,4.47E-09
0.440660156,-0.309366992,4.48E-08,-0.309359091,8.96E-08,-0.309362399,1.34E-07,-0.309359888,4.48E-07,-0.309361305,4.48E-06,-0.309278128,4.48E-09
0.441980469,-0.309097385,4.49E-08,-0.309090744,8.98E-08,-0.309093632,1.35E-07,-0.30909094,4.49E-07,-0.309092176,4.49E-06,-0.309021832,4.49E-09
0.444621094,-0.30855817,4.51E-08,-0.308554051,9.02E-08,-0.308556099,1.35E-07,-0.308553044,4.51E-07,-0.308553917,4.51E-06,-0.308513989,4.51E-09
0.449902344,-0.307479741,4.56E-08,-0.307480664,9.11E-08,-0.307481034,1.37E-07,-0.307477252,4.56E-07,-0.3074774,4.56E-06,-0.307498301,4.56E-09
0.45,-0.3074598,4.56E-08,-0.307460816,9.11E-08,-0.307461155,1.37E-07,-0.307457359,4.56E-07,-0.307457494,4.56E-06,-0.30747952,4.56E-09
0.450195313,-0.307419917,4.56E-08,-0.30742112,9.12E-08,-0.307421396,1.37E-07,-0.307417574,4.56E-07,-0.307417682,4.56E-06,-0.307441958,4.56E-09
0.450585938,-0.307340152,4.56E-08,-0.307341727,9.12E-08,-0.30734188,1.37E-07,-0.307338004,4.56E-07,-0.307338058,4.56E-06,-0.307366833,4.56E-09
0.451367188,-0.307180621,4.57E-08,-0.307182942,9.14E-08,-0.307182846,1.37E-07,-0.307178863,4.57E-07,-0.307178809,4.57E-06,-0.307216583,4.57E-09
0.452929688,-0.306861559,4.58E-08,-0.306865372,9.16E-08,-0.306864779,1.37E-07,-0.306860581,4.58E-07,-0.306860313,4.58E-06,-0.306916084,4.58E-09
0.456054688,-0.306249822,4.61E-08,-0.306254469,9.21E-08,-0.306252125,1.38E-07,-0.306249063,4.61E-07,-0.306248848,4.61E-06,-0.306270374,4.61E-09
0.46,-0.305480558,4.64E-08,-0.305485949,9.28E-08,-0.305481317,1.39E-07,-0.305479932,4.64E-07,-0.305479844,4.64E-06,-0.305451492,4.64E-09
0.460625,-0.305358694,4.64E-08,-0.305364203,9.29E-08,-0.305359209,1.39E-07,-0.30535809,4.64E-07,-0.305358021,4.64E-06,-0.305321769,4.65E-09
0.461875,-0.305114967,4.65E-08,-0.305120712,9.31E-08,-0.305114992,1.40E-07,-0.305114405,4.65E-07,-0.305114376,4.65E-06,-0.305062321,4.66E-09
0.464375,-0.304627512,4.68E-08,-0.304633728,9.35E-08,-0.304626559,1.40E-07,-0.304627035,4.68E-07,-0.304627086,4.68E-06,-0.304543425,4.68E-09
0.469375,-0.303682112,4.71E-08,-0.303689312,9.43E-08,-0.303683105,1.41E-07,-0.303684148,4.71E-07,-0.303684311,4.71E-06,-0.303618596,4.72E-09
0.47,-0.303565152,4.72E-08,-0.303572466,9.44E-08,-0.303566552,1.42E-07,-0.3035676,4.72E-07,-0.303567774,4.72E-06,-0.303508294,4.72E-09
0.471,-0.303378016,4.73E-08,-0.303385513,9.45E-08,-0.303380066,1.42E-07,-0.303381123,4.73E-07,-0.303381316,4.73E-06,-0.303331811,4.73E-09
0.473,-0.303003745,4.74E-08,-0.303011608,9.49E-08,-0.303007096,1.42E-07,-0.303008169,4.74E-07,-0.303008399,4.74E-06,-0.302978844,4.74E-09
0.477,-0.302255202,4.77E-08,-0.302263796,9.55E-08,-0.302261156,1.43E-07,-0.30226226,4.77E-07,-0.302262564,4.77E-06,-0.302272911,4.77E-09
0.48,-0.301710466,4.80E-08,-0.301721375,9.59E-08,-0.301718449,1.44E-07,-0.301719921,4.80E-07,-0.301719916,4.80E-06,-0.301743461,4.80E-09
0.4808,-0.301567158,4.80E-08,-0.301578854,9.61E-08,-0.301575667,1.44E-07,-0.301577271,4.80E-07,-0.301577141,4.80E-06,-0.301602274,4.80E-09
0.4824,-0.301280541,4.81E-08,-0.301293814,9.63E-08,-0.301290102,1.44E-07,-0.301291973,4.81E-07,-0.301291591,4.81E-06,-0.301319901,4.81E-09
0.4856,-0.300707309,4.84E-08,-0.300723733,9.68E-08,-0.300718972,1.45E-07,-0.300721376,4.84E-07,-0.30072049,4.84E-06,-0.300755155,4.84E-09
0.49,-0.299924188,4.87E-08,-0.29994354,9.74E-08,-0.299937714,1.46E-07,-0.29994066,4.87E-07,-0.299939186,4.87E-06,-0.299979816,4.87E-09
0.49064,-0.299820986,4.88E-08,-0.299840475,9.75E-08,-0.299834549,1.46E-07,-0.299837471,4.88E-07,-0.299836027,4.88E-06,-0.299873141,4.88E-09
0.491920078,-0.299615982,4.89E-08,-0.29963528,9.77E-08,-0.299629291,1.47E-07,-0.299632076,4.88E-07,-0.299630749,4.88E-06,-0.299659779,4.89E-09
0.494480234,-0.299205972,4.90E-08,-0.29922489,9.81E-08,-0.299218774,1.47E-07,-0.299221287,4.90E-07,-0.299220192,4.90E-06,-0.299233055,4.90E-09
0.499600547,-0.298385953,4.94E-08,-0.29840411,9.88E-08,-0.298397739,1.48E-07,-0.298399708,4.94E-07,-0.298399079,4.94E-06,-0.298379606,4.94E-09
0.5,-0.29832198,4.94E-08,-0.298340078,9.89E-08,-0.298333688,1.48E-07,-0.298335614,4.94E-07,-0.298335021,4.94E-06,-0.298313025,4.95E-09
